<?xml version="1.0" encoding="UTF-8" standalone="no"?>
<svg
   xmlns:dc="http://purl.org/dc/elements/1.1/"
   xmlns:cc="http://creativecommons.org/ns#"
   xmlns:rdf="http://www.w3.org/1999/02/22-rdf-syntax-ns#"
   xmlns:svg="http://www.w3.org/2000/svg"
   xmlns="http://www.w3.org/2000/svg"
   xmlns:xlink="http://www.w3.org/1999/xlink"
   version="1.0"
   width="48"
   height="48">
  <defs
     id="defs4">
    <linearGradient
       id="linearGradient7614">
      <stop
         id="stop7616"
         style="stop-color:#babdb6;stop-opacity:1"
         offset="0" />
      <stop
         id="stop7628"
         style="stop-color:#ffffff;stop-opacity:1"
         offset="0.4873454" />
      <stop
         id="stop7618"
         style="stop-color:#d3d7cf;stop-opacity:1"
         offset="1" />
    </linearGradient>
    <linearGradient
       id="linearGradient7604">
      <stop
         id="stop7606"
         style="stop-color:#000000;stop-opacity:1"
         offset="0" />
      <stop
         id="stop7608"
         style="stop-color:#000000;stop-opacity:0"
         offset="1" />
    </linearGradient>
    <linearGradient
       id="linearGradient7592">
      <stop
         id="stop7594"
         style="stop-color:#ffffff;stop-opacity:1"
         offset="0" />
      <stop
         id="stop7596"
         style="stop-color:#ffffff;stop-opacity:0"
         offset="1" />
    </linearGradient>
    <linearGradient
       id="linearGradient7582">
      <stop
         id="stop7584"
         style="stop-color:#ffffff;stop-opacity:1"
         offset="0" />
      <stop
         id="stop7586"
         style="stop-color:#ffffff;stop-opacity:0"
         offset="1" />
    </linearGradient>
    <linearGradient
       id="linearGradient7567">
      <stop
         id="stop7569"
         style="stop-color:#000000;stop-opacity:1"
         offset="0" />
      <stop
         id="stop7571"
         style="stop-color:#000000;stop-opacity:0"
         offset="1" />
    </linearGradient>
    <linearGradient
       id="linearGradient7557">
      <stop
         id="stop7559"
         style="stop-color:#eeeeec;stop-opacity:1"
         offset="0" />
      <stop
         id="stop7561"
         style="stop-color:#eeeeec;stop-opacity:1"
         offset="1" />
    </linearGradient>
    <linearGradient
       id="linearGradient7549">
      <stop
         id="stop7551"
         style="stop-color:#ffffff;stop-opacity:1"
         offset="0" />
      <stop
         id="stop7553"
         style="stop-color:#eeeeec;stop-opacity:1"
         offset="1" />
    </linearGradient>
    <linearGradient
       id="linearGradient7491">
      <stop
         id="stop7493"
         style="stop-color:#eeeeec;stop-opacity:1"
         offset="0" />
      <stop
         id="stop7495"
         style="stop-color:#babdb6;stop-opacity:1"
         offset="1" />
    </linearGradient>
    <linearGradient
       id="linearGradient6826">
      <stop
         id="stop6828"
         style="stop-color:#babdb6;stop-opacity:1"
         offset="0" />
      <stop
         id="stop6830"
         style="stop-color:#eeeeec;stop-opacity:1"
         offset="1" />
    </linearGradient>
    <linearGradient
       id="linearGradient2816">
      <stop
         id="stop2818"
         style="stop-color:#ffffff;stop-opacity:1"
         offset="0" />
      <stop
         id="stop2820"
         style="stop-color:#ffffff;stop-opacity:0"
         offset="1" />
    </linearGradient>
    <linearGradient
       id="linearGradient4542">
      <stop
         id="stop4544"
         style="stop-color:#888a85;stop-opacity:1"
         offset="0" />
      <stop
         id="stop4546"
         style="stop-color:#888a85;stop-opacity:0"
         offset="1" />
    </linearGradient>
    <linearGradient
       id="linearGradient6958">
      <stop
         id="stop6960"
         style="stop-color:#000000;stop-opacity:1"
         offset="0" />
      <stop
         id="stop6962"
         style="stop-color:#888a85;stop-opacity:0"
         offset="1" />
    </linearGradient>
    <linearGradient
       x1="6.7188582"
       y1="22.936218"
       x2="44.344444"
       y2="42.604996"
       id="linearGradient6789"
       xlink:href="#linearGradient7614"
       gradientUnits="userSpaceOnUse"
       gradientTransform="matrix(0,0.673693,-0.676136,0,37.10227,14.81577)" />
    <linearGradient
       x1="17"
       y1="45.248375"
       x2="17"
       y2="30.759407"
       id="linearGradient6791"
       xlink:href="#linearGradient6958"
       gradientUnits="userSpaceOnUse"
       gradientTransform="matrix(0,0.625,-0.676136,0,37.10227,15.875)" />
    <linearGradient
       x1="33.120464"
       y1="20.5"
       x2="22.328388"
       y2="20.5"
       id="linearGradient6798"
       xlink:href="#linearGradient4542"
       gradientUnits="userSpaceOnUse"
       gradientTransform="matrix(0.727273,0,0,0.999999,12.27273,-34.84375)" />
    <linearGradient
       x1="15.406166"
       y1="37.34367"
       x2="16.864777"
       y2="24.249567"
       id="linearGradient6834"
       xlink:href="#linearGradient2816"
       gradientUnits="userSpaceOnUse"
       gradientTransform="matrix(0,0.673693,-0.676136,0,37.10227,14.81577)" />
    <linearGradient
       x1="13.819278"
       y1="30.029789"
       x2="36.227631"
       y2="45.194965"
       id="linearGradient7425"
       xlink:href="#linearGradient6826"
       gradientUnits="userSpaceOnUse"
       gradientTransform="matrix(0,0.673693,-0.676136,0,37.10227,14.81577)" />
    <linearGradient
       x1="17"
       y1="45.248375"
       x2="17"
       y2="30.759407"
       id="linearGradient7427"
       xlink:href="#linearGradient6958"
       gradientUnits="userSpaceOnUse"
       gradientTransform="matrix(0,0.625,-0.676136,0,37.10227,15.875)" />
    <linearGradient
       x1="15.406166"
       y1="37.34367"
       x2="16.864777"
       y2="24.249567"
       id="linearGradient7431"
       xlink:href="#linearGradient2816"
       gradientUnits="userSpaceOnUse"
       gradientTransform="matrix(0,0.673693,-0.676136,0,37.10227,14.81577)" />
    <linearGradient
       x1="33.120464"
       y1="20.5"
       x2="22.328388"
       y2="20.5"
       id="linearGradient7433"
       xlink:href="#linearGradient4542"
       gradientUnits="userSpaceOnUse"
       gradientTransform="matrix(0.727273,0,0,0.999999,12.27273,-34.84375)" />
    <radialGradient
       cx="20"
       cy="46"
       r="8"
       fx="20"
       fy="46"
       id="radialGradient7610"
       xlink:href="#linearGradient7604"
       gradientUnits="userSpaceOnUse"
       gradientTransform="matrix(1,0,0,0.25,0,34.5)" />
    <radialGradient
       cx="20"
       cy="46"
       r="8"
       fx="20"
       fy="46"
       id="radialGradient7612"
       xlink:href="#linearGradient7604"
       gradientUnits="userSpaceOnUse"
       gradientTransform="matrix(1,0,0,0.25,0,34.5)" />
    <radialGradient
       cx="17.812502"
       cy="14.729167"
       r="9.500001"
       fx="17.812502"
       fy="14.729167"
       id="radialGradient6179"
       xlink:href="#linearGradient7557"
       gradientUnits="userSpaceOnUse"
       gradientTransform="matrix(1,0,0,0.6315789,0,2.947369)" />
    <radialGradient
       cx="23.681061"
       cy="5.3414755"
       r="5.055244"
       fx="23.681061"
       fy="5.3414755"
       id="radialGradient6183"
       xlink:href="#linearGradient7491"
       gradientUnits="userSpaceOnUse"
       gradientTransform="matrix(-1.5922835,-0.1907818,-1.1802872,-1.4345654,57.810344,15.557175)" />
    <radialGradient
       cx="11.15625"
       cy="2.0625"
       r="0.90625"
       fx="11.15625"
       fy="2.0625"
       id="radialGradient6187"
       xlink:href="#linearGradient7592"
       gradientUnits="userSpaceOnUse"
       gradientTransform="matrix(1,0,0,0.6206897,0,0.7823276)" />
    <radialGradient
       cx="24.090876"
       cy="5.052979"
       r="4.4921517"
       fx="24.090876"
       fy="5.052979"
       id="radialGradient6191"
       xlink:href="#linearGradient7549"
       gradientUnits="userSpaceOnUse"
       gradientTransform="matrix(1.6372128,-0.3629926,2.1525103,1.8500902,-36.53018,2.08716)" />
    <linearGradient
       x1="20.722668"
       y1="16.830494"
       x2="22.697027"
       y2="15.894469"
       id="linearGradient6195"
       xlink:href="#linearGradient7567"
       gradientUnits="userSpaceOnUse"
       gradientTransform="matrix(1.1304264,-0.235981,0.915432,0.6373638,-15.020125,7.538008)" />
    <radialGradient
       cx="11.15625"
       cy="2.0625"
       r="0.90625"
       fx="11.15625"
       fy="2.0625"
       id="radialGradient6201"
       xlink:href="#linearGradient7582"
       gradientUnits="userSpaceOnUse"
       gradientTransform="matrix(1,0,0,0.6206897,0,0.7823276)" />
  </defs>
  <metadata
     id="metadata7">
    <rdf:RDF>
      <cc:Work
         rdf:about="">
        <dc:format>image/svg+xml</dc:format>
        <dc:type
           rdf:resource="http://purl.org/dc/dcmitype/StillImage" />
        <dc:creator>
          <cc:Agent>
            <dc:title>Lapo Calamandrei</dc:title>
          </cc:Agent>
        </dc:creator>
        <cc:license
           rdf:resource="http://creativecommons.org/licenses/GPL/2.0/" />
        <dc:contributor>
          <cc:Agent>
            <dc:title>Ulisse Perusin</dc:title>
          </cc:Agent>
        </dc:contributor>
        <dc:title></dc:title>
        <dc:subject>
          <rdf:Bag>
            <rdf:li>keys</rdf:li>
            <rdf:li>key</rdf:li>
            <rdf:li>password</rdf:li>
            <rdf:li>authentication</rdf:li>
          </rdf:Bag>
        </dc:subject>
      </cc:Work>
    </rdf:RDF>
  </metadata>
  <g
     id="layer1">
    <path
       d="m 28,46 a 8,2 0 1 1 -16,0 8,2 0 1 1 16,0 z"
       transform="matrix(1.1875,0,0,1.75,9.75,-37.5)"
       id="path7600"
       style="opacity:0.16289595;fill:url(#radialGradient7612);fill-opacity:1;fill-rule:evenodd;stroke:none;stroke-width:1;marker:none;visibility:visible;display:inline;overflow:visible;enable-background:accumulate" />
    <path
       d="m 28,46 a 8,2 0 1 1 -16,0 8,2 0 1 1 16,0 z"
       transform="matrix(1.25,0,0,1.75,-8,-37.5)"
       id="path7602"
       style="opacity:0.16289595;fill:url(#radialGradient7610);fill-opacity:1;fill-rule:evenodd;stroke:none;stroke-width:1;marker:none;visibility:visible;display:inline;overflow:visible;enable-background:accumulate" />
    <path
       d="M 24.281173,13.417592 C 21.785192,13.938638 16.273503,11.934434 11.978296,8.943923 7.683089,5.953412 6.222848,3.103453 8.718829,2.582407"
       id="use6159"
       style="fill:none;stroke:#babdb6;stroke-width:3;stroke-linecap:round;stroke-linejoin:miter;stroke-miterlimit:4;stroke-opacity:1;stroke-dashoffset:0.69999992" />
    <path
       d="m 21.021707,7.056075 c 4.295207,2.990511 5.755448,5.840471 3.259466,6.361517 C 21.785192,13.938638 16.273503,11.934434 11.978296,8.943923 7.683089,5.953412 6.222848,3.103453 8.718829,2.582407 11.214811,2.061361 16.7265,4.065564 21.021707,7.056075 z"
       id="use6161"
       style="fill:none;stroke:url(#radialGradient6179);stroke-width:1;stroke-linecap:round;stroke-linejoin:miter;stroke-miterlimit:4;stroke-opacity:1;stroke-dashoffset:0.69999992" />
    <path
       d="m 12.0625,2.0625 a 0.90625,0.5625 0 1 1 -1.8125,0 0.90625,0.5625 0 1 1 1.8125,0 z"
       transform="matrix(1.1034483,0,0,1.7777778,2.636801,7.009256)"
       id="use6173"
       style="fill:url(#radialGradient6201);fill-opacity:1;fill-rule:evenodd;stroke:none;stroke-width:1;marker:none;visibility:visible;display:inline;overflow:visible;enable-background:accumulate" />
    <g
       transform="matrix(1.222459,0.3275569,-0.3275569,1.222459,15.102844,-16.514282)"
       id="g7413">
      <path
         d="m 13.4375,16.5 c -3.9188838,-1e-6 -7.09375,3.157775 -7.09375,7.0625 2e-7,2.818198 1.6046259,5.300595 4,6.4375 l 0,1.5 1.5,1.5 -1.5,1.5 0,1 2,1 0,1 -2,1 0,1 1.5,1.5 -1.5,1.5 0,1 2.5,2 2.5,0 1,-1.5 0,-14 c 2.372429,-1.145434 4,-3.698516 4,-6.5 0,-3.904724 -2.987366,-7 -6.90625,-7 z m -0.09375,2 c 1.104,0 2,0.896 2,2 0,1.104 -0.896,2 -2,2 -1.104,0 -2,-0.896 -2,-2 0,-1.104 0.896,-2 2,-2 z"
         id="path7415"
         style="fill:url(#linearGradient7425);fill-opacity:1;fill-rule:evenodd;stroke:#888a85;stroke-width:0.79014969;stroke-linecap:round;stroke-linejoin:miter;stroke-miterlimit:4;stroke-opacity:1;stroke-dasharray:none" />
      <path
         d="M 18.846598,24 8.028422,24 c 0,2.76 2.423271,5 5.409088,5 2.985817,0 5.409088,-2.24 5.409088,-5 z"
         id="path7417"
         style="opacity:0.3;fill:url(#linearGradient7427);fill-opacity:1;fill-rule:evenodd;stroke:none" />
      <path
         d="m 13.4375,17.28125 c -3.5016836,-1e-6 -6.3125,2.797504 -6.3125,6.28125 2e-7,2.523398 1.4413689,4.743258 3.5625,5.75 A 0.7767123,0.7767123 0 0 1 11.125,30 l 0,1.15625 1.28125,1.28125 a 0.7767123,0.7767123 0 0 1 0,1.125 l -1.28125,1.28125 0,0.1875 1.5625,0.78125 A 0.7767123,0.7767123 0 0 1 13.125,36.5 l 0,1 a 0.7767123,0.7767123 0 0 1 -0.4375,0.6875 l -1.5625,0.78125 0,0.1875 1.28125,1.28125 a 0.7767123,0.7767123 0 0 1 0,1.125 l -1.28125,1.28125 0,0.28125 2,1.59375 1.78125,0 0.65625,-0.96875 0,-13.75 A 0.7767123,0.7767123 0 0 1 16,29.3125 c 2.090762,-1.009442 3.5625,-3.311816 3.5625,-5.8125 0,-3.508607 -2.615059,-6.21875 -6.125,-6.21875 z m -0.09375,0.4375 c 1.524208,0 2.78125,1.257042 2.78125,2.78125 0,1.524208 -1.257042,2.78125 -2.78125,2.78125 -1.524208,0 -2.78125,-1.257042 -2.78125,-2.78125 0,-1.524208 1.257042,-2.78125 2.78125,-2.78125 z"
         id="path7419"
         style="fill:none;stroke:#ffffff;stroke-width:0.79014969;stroke-linecap:round;stroke-linejoin:miter;stroke-miterlimit:4;stroke-opacity:1;stroke-dasharray:none" />
      <path
         d="m 13.40625,17.625 c -0.218712,0.0043 -0.466555,0.03416 -0.6875,0.0625 -0.93254,0.119629 -1.775868,0.460272 -2.53125,0.9375 0.173643,0.634817 0.42464,1.158079 0.71875,1.625 0.125954,-1.319354 1.241853,-2.34375 2.59375,-2.34375 1.436081,0 2.59375,1.157668 2.59375,2.59375 0,1.436083 -1.157669,2.59375 -2.59375,2.59375 -0.07717,0 -0.14697,-0.02119 -0.21875,-0.03125 1.059311,1.270254 2.021943,2.944267 2.28125,6.09375 2.266237,-0.909044 3.875,-2.925566 3.875,-5.59375 -0.08555,-2.601924 -1.541462,-4.611423 -4,-5.625 -0.680148,-0.225329 -1.363612,-0.325754 -2.03125,-0.3125 z M 15.375,34.6875 c -0.279435,2.585586 -0.854558,5.742004 -1.8125,9.6875 l 1.15625,0 0.65625,-1.3125 0,-8.375 z"
         id="path7421"
         style="opacity:0.6;fill:url(#linearGradient7431);fill-opacity:1;fill-rule:evenodd;stroke:none" />
      <rect
         width="16.311773"
         height="0.98128641"
         x="29"
         y="-14.84375"
         transform="matrix(0,1,-1,0,0,0)"
         id="rect7423"
         style="opacity:0.61538463;fill:url(#linearGradient7433);fill-opacity:1;fill-rule:evenodd;stroke:none" />
    </g>
    <path
       d="m 25.6875,8.875 c -0.588561,0.036819 -1.182416,0.1207928 -1.78125,0.28125 -4.790674,1.283657 -7.65402,6.195384 -6.375,10.96875 0.923121,3.44513 3.699353,5.957302 7,6.5625 l 0.1875,0.75 L 25.25,25.5 c 3.275392,-0.623141 6.113605,-3.200301 7.03125,-6.625 1.018029,-3.799341 -0.444599,-7.588204 -3.5,-9.625 C 27.800972,8.9441375 26.762022,8.8077801 25.6875,8.875 z m -0.84375,1.5 c 0.167842,0.01005 0.331301,0.04855 0.5,0.09375 1.075458,0.288168 1.806766,1.228158 1.875,2.28125 0.129462,0.207411 0.245957,0.439157 0.3125,0.6875 0.361623,1.349595 -0.431656,2.732127 -1.78125,3.09375 -1.349595,0.361624 -2.732127,-0.431656 -3.09375,-1.78125 -0.04247,-0.158514 -0.08238,-0.310882 -0.09375,-0.46875 -0.0047,-0.0073 0.0046,-0.02393 0,-0.03125 -0.359793,-0.574923 -0.501749,-1.293712 -0.3125,-2 0.316419,-1.180896 1.418855,-1.945332 2.59375,-1.875 z"
       id="path7441"
       style="opacity:0.15;fill:#000000;fill-opacity:1;fill-rule:evenodd;stroke:#000000;stroke-width:0.99999976;stroke-linecap:round;stroke-linejoin:miter;stroke-miterlimit:4;stroke-opacity:1;stroke-dasharray:none" />
    <g
       transform="matrix(1.222459,-0.3275569,0.3275569,1.222459,2.064799,-7.6041513)"
       id="g6765">
      <path
         d="m 13.4375,16.5 c -3.9188838,-1e-6 -7.09375,3.157775 -7.09375,7.0625 2e-7,2.818198 1.6046259,5.300595 4,6.4375 l 0,1.5 1.5,1.5 -1.5,1.5 0,1 2,1 0,1 -2,1 0,1 1.5,1.5 -1.5,1.5 0,1 2.5,2 2.5,0 1,-1.5 0,-14 c 2.372429,-1.145434 4,-3.698516 4,-6.5 0,-3.904724 -2.987366,-7 -6.90625,-7 z m -0.09375,2 c 1.104,0 2,0.896 2,2 0,1.104 -0.896,2 -2,2 -1.104,0 -2,-0.896 -2,-2 0,-1.104 0.896,-2 2,-2 z"
         id="path6767"
         style="fill:url(#linearGradient6789);fill-opacity:1;fill-rule:evenodd;stroke:#888a85;stroke-width:0.79014969;stroke-linecap:round;stroke-linejoin:miter;stroke-miterlimit:4;stroke-opacity:1;stroke-dasharray:none" />
      <path
         d="M 18.846598,24 8.028422,24 c 0,2.76 2.423271,5 5.409088,5 2.985817,0 5.409088,-2.24 5.409088,-5 z"
         id="path6769"
         style="opacity:0.3;fill:url(#linearGradient6791);fill-opacity:1;fill-rule:evenodd;stroke:none" />
      <path
         d="m 13.4375,17.28125 c -3.5016836,-1e-6 -6.3125,2.797504 -6.3125,6.28125 2e-7,2.523398 1.4413689,4.743258 3.5625,5.75 A 0.7767123,0.7767123 0 0 1 11.125,30 l 0,1.15625 1.28125,1.28125 a 0.7767123,0.7767123 0 0 1 0,1.125 l -1.28125,1.28125 0,0.1875 1.5625,0.78125 A 0.7767123,0.7767123 0 0 1 13.125,36.5 l 0,1 a 0.7767123,0.7767123 0 0 1 -0.4375,0.6875 l -1.5625,0.78125 0,0.1875 1.28125,1.28125 a 0.7767123,0.7767123 0 0 1 0,1.125 l -1.28125,1.28125 0,0.28125 2,1.59375 1.78125,0 0.65625,-0.96875 0,-13.75 A 0.7767123,0.7767123 0 0 1 16,29.3125 c 2.090762,-1.009442 3.5625,-3.311816 3.5625,-5.8125 0,-3.508607 -2.615059,-6.21875 -6.125,-6.21875 z m -0.09375,0.4375 c 1.524208,0 2.78125,1.257042 2.78125,2.78125 0,1.524208 -1.257042,2.78125 -2.78125,2.78125 -1.524208,0 -2.78125,-1.257042 -2.78125,-2.78125 0,-1.524208 1.257042,-2.78125 2.78125,-2.78125 z"
         id="path6771"
         style="fill:none;stroke:#ffffff;stroke-width:0.79014969;stroke-linecap:round;stroke-linejoin:miter;stroke-miterlimit:4;stroke-opacity:1;stroke-dasharray:none" />
      <path
         d="m 13.40625,17.625 c -0.218712,0.0043 -0.466555,0.03416 -0.6875,0.0625 -0.93254,0.119629 -1.775868,0.460272 -2.53125,0.9375 0.173643,0.634817 0.42464,1.158079 0.71875,1.625 0.125954,-1.319354 1.241853,-2.34375 2.59375,-2.34375 1.436081,0 2.59375,1.157668 2.59375,2.59375 0,1.436083 -1.157669,2.59375 -2.59375,2.59375 -0.07717,0 -0.14697,-0.02119 -0.21875,-0.03125 1.059311,1.270254 2.021943,2.944267 2.28125,6.09375 2.266237,-0.909044 3.875,-2.925566 3.875,-5.59375 -0.08555,-2.601924 -1.541462,-4.611423 -4,-5.625 -0.680148,-0.225329 -1.363612,-0.325754 -2.03125,-0.3125 z M 15.375,34.6875 c -0.279435,2.585586 -0.854558,5.742004 -1.8125,9.6875 l 1.15625,0 0.65625,-1.3125 0,-8.375 z"
         id="path6832"
         style="opacity:0.6;fill:url(#linearGradient6834);fill-opacity:1;fill-rule:evenodd;stroke:none" />
      <rect
         width="16.311773"
         height="0.98128641"
         x="29"
         y="-14.84375"
         transform="matrix(0,1,-1,0,0,0)"
         id="rect6776"
         style="opacity:0.61538463;fill:url(#linearGradient6798);fill-opacity:1;fill-rule:evenodd;stroke:none" />
    </g>
    <path
       d="M 7.973909,5.14413 C 6.383785,2.550006 8.912938,1.724058 13.619341,3.300498 c 4.706403,1.57644 9.816629,4.961246 11.406753,7.555371 0.789043,1.287243 0.643566,2.112963 -0.43671,2.478739"
       id="use6163"
       style="fill:none;stroke:url(#radialGradient6183);stroke-width:3;stroke-linecap:round;stroke-linejoin:miter;stroke-miterlimit:4;stroke-opacity:1;stroke-dashoffset:0.69999992" />
    <path
       d="m 12.0625,2.0625 a 0.90625,0.5625 0 1 1 -1.8125,0 0.90625,0.5625 0 1 1 1.8125,0 z"
       transform="matrix(1.5911082,0,0,2.563452,-6.228703,-2.588246)"
       id="use6165"
       style="fill:url(#radialGradient6187);fill-opacity:1;fill-rule:evenodd;stroke:none;stroke-width:1;marker:none;visibility:visible;display:inline;overflow:visible;enable-background:accumulate" />
    <path
       d="M 10.813348,8.082144 C 6.962997,5.046919 6.385696,2.546748 9.524729,2.501404 12.663762,2.45606 18.336305,4.88263 22.186655,7.917855 c 3.791641,2.988943 4.422284,5.460973 1.422808,5.577195"
       id="use6167"
       style="fill:none;stroke:url(#radialGradient6191);stroke-width:1;stroke-linecap:round;stroke-linejoin:miter;stroke-miterlimit:4;stroke-opacity:1;stroke-dashoffset:0.69999992" />
    <path
       d="m 22.186054,7.917381 c 3.792118,2.989106 4.423052,5.46144 1.423409,5.577669"
       id="use6169"
       style="opacity:0.10407242;fill:none;stroke:url(#linearGradient6195);stroke-width:1;stroke-linecap:round;stroke-linejoin:miter;stroke-miterlimit:4;stroke-opacity:1;stroke-dashoffset:0.69999992" />
    <path
       d="m 12.0625,2.0625 a 0.90625,0.5625 0 1 1 -1.8125,0 0.90625,0.5625 0 1 1 1.8125,0 z"
       transform="matrix(1.1034483,0,0,1.7777778,-0.69986,-0.945696)"
       id="use6171"
       style="fill:#ffffff;fill-opacity:1;fill-rule:evenodd;stroke:none;stroke-width:1;marker:none;visibility:visible;display:inline;overflow:visible;enable-background:accumulate" />
  </g>
</svg>
