<?xml version="1.0" encoding="UTF-8" standalone="no"?>
<svg
   xmlns:dc="http://purl.org/dc/elements/1.1/"
   xmlns:cc="http://creativecommons.org/ns#"
   xmlns:rdf="http://www.w3.org/1999/02/22-rdf-syntax-ns#"
   xmlns:svg="http://www.w3.org/2000/svg"
   xmlns="http://www.w3.org/2000/svg"
   xmlns:xlink="http://www.w3.org/1999/xlink"
   xmlns:sodipodi="http://sodipodi.sourceforge.net/DTD/sodipodi-0.dtd"
   xmlns:inkscape="http://www.inkscape.org/namespaces/inkscape"
   sodipodi:docname="network-workgroup.svg"
   sodipodi:docbase="/home/jimmac/src/cvs/tango-icon-theme/scalable/places"
   inkscape:version="0.46"
   sodipodi:version="0.32"
   height="48px"
   width="48px"
   inkscape:output_extension="org.inkscape.output.svg.inkscape">
  <defs
     id="defs3">
    <inkscape:perspective
       sodipodi:type="inkscape:persp3d"
       inkscape:vp_x="0 : 24 : 1"
       inkscape:vp_y="0 : 1000 : 0"
       inkscape:vp_z="48 : 24 : 1"
       inkscape:persp3d-origin="24 : 16 : 1"
       id="perspective230" />
    <radialGradient
       inkscape:collect="always"
       xlink:href="#linearGradient5060"
       id="radialGradient6719"
       gradientUnits="userSpaceOnUse"
       gradientTransform="matrix(-2.774389,0,0,1.969706,112.7623,-872.8854)"
       cx="605.71429"
       cy="486.64789"
       fx="605.71429"
       fy="486.64789"
       r="117.14286" />
    <linearGradient
       inkscape:collect="always"
       id="linearGradient5060">
      <stop
         style="stop-color:black;stop-opacity:1;"
         offset="0"
         id="stop5062" />
      <stop
         style="stop-color:black;stop-opacity:0;"
         offset="1"
         id="stop5064" />
    </linearGradient>
    <radialGradient
       inkscape:collect="always"
       xlink:href="#linearGradient5060"
       id="radialGradient6717"
       gradientUnits="userSpaceOnUse"
       gradientTransform="matrix(2.774389,0,0,1.969706,-1891.633,-872.8854)"
       cx="605.71429"
       cy="486.64789"
       fx="605.71429"
       fy="486.64789"
       r="117.14286" />
    <linearGradient
       id="linearGradient5048">
      <stop
         style="stop-color:black;stop-opacity:0;"
         offset="0"
         id="stop5050" />
      <stop
         id="stop5056"
         offset="0.5"
         style="stop-color:black;stop-opacity:1;" />
      <stop
         style="stop-color:black;stop-opacity:0;"
         offset="1"
         id="stop5052" />
    </linearGradient>
    <linearGradient
       inkscape:collect="always"
       xlink:href="#linearGradient5048"
       id="linearGradient6715"
       gradientUnits="userSpaceOnUse"
       gradientTransform="matrix(2.774389,0,0,1.969706,-1892.179,-872.8854)"
       x1="302.85715"
       y1="366.64789"
       x2="302.85715"
       y2="609.50507" />
    <linearGradient
       id="linearGradient6457"
       inkscape:collect="always">
      <stop
         id="stop6459"
         offset="0"
         style="stop-color:#ffffff;stop-opacity:1;" />
      <stop
         id="stop6461"
         offset="1"
         style="stop-color:#ffffff;stop-opacity:0;" />
    </linearGradient>
    <linearGradient
       id="linearGradient6444">
      <stop
         id="stop6446"
         offset="0.0000000"
         style="stop-color:#b8cfe7;stop-opacity:1.0000000;" />
      <stop
         id="stop6448"
         offset="1.0000000"
         style="stop-color:#729fcf;stop-opacity:1.0000000;" />
    </linearGradient>
    <linearGradient
       id="linearGradient6187"
       inkscape:collect="always">
      <stop
         id="stop6189"
         offset="0"
         style="stop-color:#5e5e5e;stop-opacity:1;" />
      <stop
         id="stop6191"
         offset="1"
         style="stop-color:#5e5e5e;stop-opacity:0;" />
    </linearGradient>
    <linearGradient
       id="linearGradient6171"
       inkscape:collect="always">
      <stop
         id="stop6173"
         offset="0"
         style="stop-color:#ffffff;stop-opacity:1;" />
      <stop
         id="stop6175"
         offset="1"
         style="stop-color:#ffffff;stop-opacity:0;" />
    </linearGradient>
    <linearGradient
       id="linearGradient6151">
      <stop
         id="stop6153"
         offset="0.0000000"
         style="stop-color:#e0e2e2;stop-opacity:1.0000000;" />
      <stop
         id="stop6155"
         offset="1.0000000"
         style="stop-color:#bfc2c2;stop-opacity:1.0000000;" />
    </linearGradient>
    <linearGradient
       id="linearGradient158">
      <stop
         style="stop-color:#686868;stop-opacity:0.0000000;"
         offset="0.0000000"
         id="stop159" />
      <stop
         style="stop-color:#686868;stop-opacity:1.0000000;"
         offset="0.23762377"
         id="stop162" />
      <stop
         style="stop-color:#686868;stop-opacity:1.0000000;"
         offset="0.78109992"
         id="stop163" />
      <stop
         style="stop-color:#686868;stop-opacity:0.0000000;"
         offset="1.0000000"
         id="stop160" />
    </linearGradient>
    <linearGradient
       id="linearGradient272">
      <stop
         style="stop-color:#474747;stop-opacity:0.0000000;"
         offset="0.0000000"
         id="stop273" />
      <stop
         style="stop-color:#474747;stop-opacity:1.0000000;"
         offset="0.10000000"
         id="stop275" />
      <stop
         style="stop-color:#474747;stop-opacity:1.0000000;"
         offset="0.89999998"
         id="stop276" />
      <stop
         style="stop-color:#474747;stop-opacity:0.0000000;"
         offset="1.0000000"
         id="stop274" />
    </linearGradient>
    <linearGradient
       id="linearGradient178">
      <stop
         style="stop-color:#ffffff;stop-opacity:0.0000000;"
         offset="0.0000000"
         id="stop179" />
      <stop
         style="stop-color:#ffffff;stop-opacity:0.70658684;"
         offset="0.10827128"
         id="stop180" />
      <stop
         style="stop-color:#ffffff;stop-opacity:0.70658684;"
         offset="0.92053902"
         id="stop181" />
      <stop
         style="stop-color:#ffffff;stop-opacity:0.0000000;"
         offset="1.0000000"
         id="stop182" />
    </linearGradient>
    <linearGradient
       id="linearGradient4543"
       inkscape:collect="always">
      <stop
         id="stop4545"
         offset="0"
         style="stop-color:#000000;stop-opacity:1;" />
      <stop
         id="stop4547"
         offset="1"
         style="stop-color:#000000;stop-opacity:0;" />
    </linearGradient>
    <linearGradient
       id="linearGradient4509">
      <stop
         style="stop-color:#000000;stop-opacity:1.0000000;"
         offset="0.0000000"
         id="stop4511" />
      <stop
         style="stop-color:#000000;stop-opacity:0.0000000;"
         offset="1.0000000"
         id="stop4513" />
    </linearGradient>
    <linearGradient
       id="linearGradient4449"
       inkscape:collect="always">
      <stop
         id="stop4451"
         offset="0"
         style="stop-color:#ffffff;stop-opacity:1;" />
      <stop
         id="stop4453"
         offset="1"
         style="stop-color:#ffffff;stop-opacity:0;" />
    </linearGradient>
    <linearGradient
       id="linearGradient4420"
       inkscape:collect="always">
      <stop
         id="stop4422"
         offset="0"
         style="stop-color:#ffffff;stop-opacity:1;" />
      <stop
         id="stop4424"
         offset="1"
         style="stop-color:#ffffff;stop-opacity:0;" />
    </linearGradient>
    <linearGradient
       id="linearGradient4412"
       inkscape:collect="always">
      <stop
         id="stop4414"
         offset="0"
         style="stop-color:#ffffff;stop-opacity:1;" />
      <stop
         id="stop4416"
         offset="1"
         style="stop-color:#ffffff;stop-opacity:0;" />
    </linearGradient>
    <linearGradient
       id="linearGradient4400">
      <stop
         id="stop4402"
         offset="0"
         style="stop-color:#979797;stop-opacity:1;" />
      <stop
         id="stop4404"
         offset="1.0000000"
         style="stop-color:#c8c8c8;stop-opacity:1.0000000;" />
    </linearGradient>
    <linearGradient
       id="linearGradient4386">
      <stop
         id="stop4388"
         offset="0.0000000"
         style="stop-color:#d2d2d2;stop-opacity:1.0000000;" />
      <stop
         id="stop4390"
         offset="1.0000000"
         style="stop-color:#dfdfdf;stop-opacity:1.0000000;" />
    </linearGradient>
    <linearGradient
       gradientTransform="matrix(0.704136,0.000000,0.000000,0.704136,-7.020643,9.459728)"
       gradientUnits="userSpaceOnUse"
       y2="10.018264"
       x2="23.233509"
       y1="34.463955"
       x1="24.349752"
       id="linearGradient4392"
       xlink:href="#linearGradient4386"
       inkscape:collect="always" />
    <linearGradient
       gradientTransform="matrix(0.658413,0.000000,0.000000,0.688766,-6.061089,9.521717)"
       gradientUnits="userSpaceOnUse"
       y2="26.786800"
       x2="22.311644"
       y1="26.887815"
       x1="27.324621"
       id="linearGradient4418"
       xlink:href="#linearGradient4412"
       inkscape:collect="always" />
    <linearGradient
       gradientTransform="matrix(0.658413,0.000000,0.000000,0.688766,-6.061089,9.521717)"
       gradientUnits="userSpaceOnUse"
       y2="26.786800"
       x2="22.311644"
       y1="26.887815"
       x1="27.324621"
       id="linearGradient4426"
       xlink:href="#linearGradient4420"
       inkscape:collect="always" />
    <linearGradient
       gradientTransform="matrix(0.688766,0.000000,0.000000,0.688766,-4.795693,9.521717)"
       y2="30.928421"
       x2="16.364470"
       y1="39.918777"
       x1="16.364470"
       gradientUnits="userSpaceOnUse"
       id="linearGradient4459"
       xlink:href="#linearGradient4449"
       inkscape:collect="always" />
    <linearGradient
       y2="30.928421"
       x2="16.364470"
       y1="39.918777"
       x1="16.364470"
       gradientTransform="matrix(0.688766,0.000000,0.000000,0.688766,-3.418159,9.521717)"
       gradientUnits="userSpaceOnUse"
       id="linearGradient4463"
       xlink:href="#linearGradient4449"
       inkscape:collect="always" />
    <linearGradient
       y2="30.928421"
       x2="16.364470"
       y1="39.918777"
       x1="16.364470"
       gradientTransform="matrix(0.688766,0.000000,0.000000,0.688766,-2.040629,9.521717)"
       gradientUnits="userSpaceOnUse"
       id="linearGradient4467"
       xlink:href="#linearGradient4449"
       inkscape:collect="always" />
    <linearGradient
       y2="30.928421"
       x2="16.364470"
       y1="39.918777"
       x1="16.364470"
       gradientTransform="matrix(0.688766,0.000000,0.000000,0.688766,-0.663100,9.521717)"
       gradientUnits="userSpaceOnUse"
       id="linearGradient4471"
       xlink:href="#linearGradient4449"
       inkscape:collect="always" />
    <linearGradient
       y2="30.928421"
       x2="16.364470"
       y1="39.918777"
       x1="16.364470"
       gradientTransform="matrix(0.688766,0.000000,0.000000,0.688766,0.714451,9.521717)"
       gradientUnits="userSpaceOnUse"
       id="linearGradient4475"
       xlink:href="#linearGradient4449"
       inkscape:collect="always" />
    <linearGradient
       y2="30.928421"
       x2="16.364470"
       y1="39.918777"
       x1="16.364470"
       gradientTransform="matrix(0.688766,0.000000,0.000000,0.688766,2.091991,9.521717)"
       gradientUnits="userSpaceOnUse"
       id="linearGradient4479"
       xlink:href="#linearGradient4449"
       inkscape:collect="always" />
    <linearGradient
       gradientTransform="matrix(0.688766,0.000000,0.000000,0.688766,-5.547044,9.521717)"
       y2="30.928421"
       x2="16.364470"
       y1="39.918777"
       x1="16.364470"
       gradientUnits="userSpaceOnUse"
       id="linearGradient4495"
       xlink:href="#linearGradient4509"
       inkscape:collect="always" />
    <linearGradient
       y2="30.928421"
       x2="16.364470"
       y1="39.918777"
       x1="16.364470"
       gradientTransform="matrix(0.688766,0.000000,0.000000,0.688766,-4.169512,9.521717)"
       gradientUnits="userSpaceOnUse"
       id="linearGradient4497"
       xlink:href="#linearGradient4509"
       inkscape:collect="always" />
    <linearGradient
       y2="30.928421"
       x2="16.364470"
       y1="39.918777"
       x1="16.364470"
       gradientTransform="matrix(0.688766,0.000000,0.000000,0.688766,-2.791979,9.521717)"
       gradientUnits="userSpaceOnUse"
       id="linearGradient4499"
       xlink:href="#linearGradient4509"
       inkscape:collect="always" />
    <linearGradient
       y2="30.928421"
       x2="16.364470"
       y1="39.918777"
       x1="16.364470"
       gradientTransform="matrix(0.688766,0.000000,0.000000,0.688766,-1.414449,9.521717)"
       gradientUnits="userSpaceOnUse"
       id="linearGradient4501"
       xlink:href="#linearGradient4509"
       inkscape:collect="always" />
    <linearGradient
       y2="30.928421"
       x2="16.364470"
       y1="39.918777"
       x1="16.364470"
       gradientTransform="matrix(0.688766,0.000000,0.000000,0.688766,-3.691970e-2,9.521717)"
       gradientUnits="userSpaceOnUse"
       id="linearGradient4503"
       xlink:href="#linearGradient4509"
       inkscape:collect="always" />
    <linearGradient
       y2="30.928421"
       x2="16.364470"
       y1="39.918777"
       x1="16.364470"
       gradientTransform="matrix(0.688766,0.000000,0.000000,0.688766,1.340671,9.521717)"
       gradientUnits="userSpaceOnUse"
       id="linearGradient4505"
       xlink:href="#linearGradient4509"
       inkscape:collect="always" />
    <radialGradient
       gradientUnits="userSpaceOnUse"
       gradientTransform="matrix(1.000000,0.000000,0.000000,0.394366,1.020972e-14,23.44202)"
       r="14.344166"
       fy="38.706596"
       fx="23.536554"
       cy="38.706596"
       cx="23.536554"
       id="radialGradient4549"
       xlink:href="#linearGradient4543"
       inkscape:collect="always" />
    <linearGradient
       y2="117.82710"
       x2="15.343062"
       y1="117.82710"
       x1="1.6422368"
       gradientTransform="matrix(2.740165,0,0,0.364942,31.37799,-10.35269)"
       gradientUnits="userSpaceOnUse"
       id="linearGradient5397"
       xlink:href="#linearGradient158"
       inkscape:collect="always" />
    <linearGradient
       y2="372.57819"
       x2="5.0856376"
       y1="372.57819"
       x1="0.61210024"
       gradientTransform="matrix(8.168597,0,0,0.22121,31.37799,-48.2741)"
       gradientUnits="userSpaceOnUse"
       id="linearGradient5399"
       xlink:href="#linearGradient272"
       inkscape:collect="always" />
    <linearGradient
       y2="372.57819"
       x2="5.0856376"
       y1="372.57819"
       x1="0.61210024"
       gradientTransform="matrix(8.168597,0,0,0.228621,31.37799,-46.2669)"
       gradientUnits="userSpaceOnUse"
       id="linearGradient5401"
       xlink:href="#linearGradient272"
       inkscape:collect="always" />
    <linearGradient
       y2="117.82710"
       x2="15.343062"
       y1="117.82710"
       x1="1.6422368"
       gradientTransform="matrix(2.740165,0,0,0.147685,31.37799,14.83313)"
       gradientUnits="userSpaceOnUse"
       id="linearGradient5403"
       xlink:href="#linearGradient178"
       inkscape:collect="always" />
    <linearGradient
       y2="31.565634"
       x2="37.140110"
       y1="10.655476"
       x1="25.515011"
       gradientUnits="userSpaceOnUse"
       id="linearGradient6210"
       xlink:href="#linearGradient6171"
       inkscape:collect="always" />
    <linearGradient
       y2="28.554563"
       x2="38.547222"
       y1="28.554563"
       x1="32.587322"
       gradientUnits="userSpaceOnUse"
       id="linearGradient6212"
       xlink:href="#linearGradient6187"
       inkscape:collect="always" />
    <linearGradient
       y2="31.565634"
       x2="37.140110"
       y1="10.655476"
       x1="25.515011"
       gradientUnits="userSpaceOnUse"
       id="linearGradient6240"
       xlink:href="#linearGradient6171"
       inkscape:collect="always" />
    <linearGradient
       y2="28.554563"
       x2="38.547222"
       y1="28.554563"
       x1="32.587322"
       gradientUnits="userSpaceOnUse"
       id="linearGradient6242"
       xlink:href="#linearGradient6187"
       inkscape:collect="always" />
    <radialGradient
       r="14.344166"
       fy="38.706596"
       fx="23.536554"
       cy="38.706596"
       cx="23.536554"
       gradientTransform="matrix(1,0,0,0.394366,-7.981466e-15,23.44202)"
       gradientUnits="userSpaceOnUse"
       id="radialGradient6246"
       xlink:href="#linearGradient4543"
       inkscape:collect="always" />
    <linearGradient
       y2="117.82710"
       x2="15.343062"
       y1="117.82710"
       x1="1.6422368"
       gradientTransform="matrix(2.740165,-3.342469e-32,-7.06832e-33,0.364942,31.37799,-10.35269)"
       gradientUnits="userSpaceOnUse"
       id="linearGradient6262"
       xlink:href="#linearGradient158"
       inkscape:collect="always" />
    <linearGradient
       y2="372.57819"
       x2="5.0856376"
       y1="372.57819"
       x1="0.61210024"
       gradientTransform="matrix(8.168597,-9.964097e-32,-4.284491e-33,0.22121,31.37799,-48.2741)"
       gradientUnits="userSpaceOnUse"
       id="linearGradient6264"
       xlink:href="#linearGradient272"
       inkscape:collect="always" />
    <linearGradient
       y2="372.57819"
       x2="5.0856376"
       y1="372.57819"
       x1="0.61210024"
       gradientTransform="matrix(8.168597,-9.964097e-32,-4.42803e-33,0.228621,31.37799,-46.2669)"
       gradientUnits="userSpaceOnUse"
       id="linearGradient6266"
       xlink:href="#linearGradient272"
       inkscape:collect="always" />
    <linearGradient
       y2="117.82710"
       x2="15.343062"
       y1="117.82710"
       x1="1.6422368"
       gradientTransform="matrix(2.740165,-3.342469e-32,-2.860426e-33,0.147685,31.37799,14.83313)"
       gradientUnits="userSpaceOnUse"
       id="linearGradient6268"
       xlink:href="#linearGradient178"
       inkscape:collect="always" />
    <linearGradient
       gradientTransform="matrix(0.953806,0,0,1,1.832176,-4.574791e-16)"
       gradientUnits="userSpaceOnUse"
       y2="26.435217"
       x2="38.278458"
       y1="19.061104"
       x1="36.067482"
       id="linearGradient6463"
       xlink:href="#linearGradient6457"
       inkscape:collect="always" />
    <linearGradient
       gradientTransform="matrix(0.969204,0,0,1,-5.815945,-9.899495)"
       y2="26.435217"
       x2="38.278458"
       y1="19.061104"
       x1="36.067482"
       gradientUnits="userSpaceOnUse"
       id="linearGradient6467"
       xlink:href="#linearGradient6457"
       inkscape:collect="always" />
    <linearGradient
       inkscape:collect="always"
       xlink:href="#linearGradient4386"
       id="linearGradient4059"
       gradientUnits="userSpaceOnUse"
       gradientTransform="matrix(0.704136,0,0,0.704136,-7.020643,9.459728)"
       x1="24.349752"
       y1="34.463955"
       x2="23.233509"
       y2="10.018264" />
    <linearGradient
       inkscape:collect="always"
       xlink:href="#linearGradient4420"
       id="linearGradient4061"
       gradientUnits="userSpaceOnUse"
       gradientTransform="matrix(0.658413,0,0,0.688766,-6.061089,9.521717)"
       x1="27.324621"
       y1="26.887815"
       x2="22.311644"
       y2="26.786800" />
    <linearGradient
       inkscape:collect="always"
       xlink:href="#linearGradient4412"
       id="linearGradient4063"
       gradientUnits="userSpaceOnUse"
       gradientTransform="matrix(0.658413,0,0,0.688766,-6.061089,9.521717)"
       x1="27.324621"
       y1="26.887815"
       x2="22.311644"
       y2="26.786800" />
    <linearGradient
       inkscape:collect="always"
       xlink:href="#linearGradient4449"
       id="linearGradient4065"
       gradientUnits="userSpaceOnUse"
       gradientTransform="matrix(0.688766,0,0,0.688766,-4.795693,9.521717)"
       x1="16.364470"
       y1="39.918777"
       x2="16.364470"
       y2="30.928421" />
    <linearGradient
       inkscape:collect="always"
       xlink:href="#linearGradient4449"
       id="linearGradient4067"
       gradientUnits="userSpaceOnUse"
       gradientTransform="matrix(0.688766,0,0,0.688766,-3.418159,9.521717)"
       x1="16.364470"
       y1="39.918777"
       x2="16.364470"
       y2="30.928421" />
    <linearGradient
       inkscape:collect="always"
       xlink:href="#linearGradient4449"
       id="linearGradient4069"
       gradientUnits="userSpaceOnUse"
       gradientTransform="matrix(0.688766,0,0,0.688766,-2.040629,9.521717)"
       x1="16.364470"
       y1="39.918777"
       x2="16.364470"
       y2="30.928421" />
    <linearGradient
       inkscape:collect="always"
       xlink:href="#linearGradient4449"
       id="linearGradient4071"
       gradientUnits="userSpaceOnUse"
       gradientTransform="matrix(0.688766,0,0,0.688766,-0.6631,9.521717)"
       x1="16.364470"
       y1="39.918777"
       x2="16.364470"
       y2="30.928421" />
    <linearGradient
       inkscape:collect="always"
       xlink:href="#linearGradient4449"
       id="linearGradient4073"
       gradientUnits="userSpaceOnUse"
       gradientTransform="matrix(0.688766,0,0,0.688766,0.714451,9.521717)"
       x1="16.364470"
       y1="39.918777"
       x2="16.364470"
       y2="30.928421" />
    <linearGradient
       inkscape:collect="always"
       xlink:href="#linearGradient4449"
       id="linearGradient4075"
       gradientUnits="userSpaceOnUse"
       gradientTransform="matrix(0.688766,0,0,0.688766,2.091991,9.521717)"
       x1="16.364470"
       y1="39.918777"
       x2="16.364470"
       y2="30.928421" />
    <linearGradient
       inkscape:collect="always"
       xlink:href="#linearGradient4509"
       id="linearGradient4077"
       gradientUnits="userSpaceOnUse"
       gradientTransform="matrix(0.688766,0,0,0.688766,-5.547044,9.521717)"
       x1="16.364470"
       y1="39.918777"
       x2="16.364470"
       y2="30.928421" />
    <linearGradient
       inkscape:collect="always"
       xlink:href="#linearGradient4509"
       id="linearGradient4079"
       gradientUnits="userSpaceOnUse"
       gradientTransform="matrix(0.688766,0,0,0.688766,-4.169512,9.521717)"
       x1="16.364470"
       y1="39.918777"
       x2="16.364470"
       y2="30.928421" />
    <linearGradient
       inkscape:collect="always"
       xlink:href="#linearGradient4509"
       id="linearGradient4081"
       gradientUnits="userSpaceOnUse"
       gradientTransform="matrix(0.688766,0,0,0.688766,-2.791979,9.521717)"
       x1="16.364470"
       y1="39.918777"
       x2="16.364470"
       y2="30.928421" />
    <linearGradient
       inkscape:collect="always"
       xlink:href="#linearGradient4509"
       id="linearGradient4083"
       gradientUnits="userSpaceOnUse"
       gradientTransform="matrix(0.688766,0,0,0.688766,-1.414449,9.521717)"
       x1="16.364470"
       y1="39.918777"
       x2="16.364470"
       y2="30.928421" />
    <linearGradient
       inkscape:collect="always"
       xlink:href="#linearGradient4509"
       id="linearGradient4085"
       gradientUnits="userSpaceOnUse"
       gradientTransform="matrix(0.688766,0,0,0.688766,-3.69197e-2,9.521717)"
       x1="16.364470"
       y1="39.918777"
       x2="16.364470"
       y2="30.928421" />
    <linearGradient
       inkscape:collect="always"
       xlink:href="#linearGradient4509"
       id="linearGradient4087"
       gradientUnits="userSpaceOnUse"
       gradientTransform="matrix(0.688766,0,0,0.688766,1.340671,9.521717)"
       x1="16.364470"
       y1="39.918777"
       x2="16.364470"
       y2="30.928421" />
    <linearGradient
       inkscape:collect="always"
       xlink:href="#linearGradient4509"
       id="linearGradient4127"
       gradientUnits="userSpaceOnUse"
       gradientTransform="matrix(0.688766,0,0,0.688766,1.340671,9.521717)"
       x1="16.364470"
       y1="39.918777"
       x2="16.364470"
       y2="30.928421" />
    <linearGradient
       inkscape:collect="always"
       xlink:href="#linearGradient4509"
       id="linearGradient4129"
       gradientUnits="userSpaceOnUse"
       gradientTransform="matrix(0.688766,0,0,0.688766,-3.69197e-2,9.521717)"
       x1="16.364470"
       y1="39.918777"
       x2="16.364470"
       y2="30.928421" />
    <linearGradient
       inkscape:collect="always"
       xlink:href="#linearGradient4509"
       id="linearGradient4131"
       gradientUnits="userSpaceOnUse"
       gradientTransform="matrix(0.688766,0,0,0.688766,-1.414449,9.521717)"
       x1="16.364470"
       y1="39.918777"
       x2="16.364470"
       y2="30.928421" />
    <linearGradient
       inkscape:collect="always"
       xlink:href="#linearGradient4509"
       id="linearGradient4133"
       gradientUnits="userSpaceOnUse"
       gradientTransform="matrix(0.688766,0,0,0.688766,-2.791979,9.521717)"
       x1="16.364470"
       y1="39.918777"
       x2="16.364470"
       y2="30.928421" />
    <linearGradient
       inkscape:collect="always"
       xlink:href="#linearGradient4509"
       id="linearGradient4135"
       gradientUnits="userSpaceOnUse"
       gradientTransform="matrix(0.688766,0,0,0.688766,-4.169512,9.521717)"
       x1="16.364470"
       y1="39.918777"
       x2="16.364470"
       y2="30.928421" />
    <linearGradient
       inkscape:collect="always"
       xlink:href="#linearGradient4509"
       id="linearGradient4137"
       gradientUnits="userSpaceOnUse"
       gradientTransform="matrix(0.688766,0,0,0.688766,-5.547044,9.521717)"
       x1="16.364470"
       y1="39.918777"
       x2="16.364470"
       y2="30.928421" />
    <linearGradient
       inkscape:collect="always"
       xlink:href="#linearGradient4449"
       id="linearGradient4139"
       gradientUnits="userSpaceOnUse"
       gradientTransform="matrix(0.688766,0,0,0.688766,2.091991,9.521717)"
       x1="16.364470"
       y1="39.918777"
       x2="16.364470"
       y2="30.928421" />
    <linearGradient
       inkscape:collect="always"
       xlink:href="#linearGradient4449"
       id="linearGradient4141"
       gradientUnits="userSpaceOnUse"
       gradientTransform="matrix(0.688766,0,0,0.688766,0.714451,9.521717)"
       x1="16.364470"
       y1="39.918777"
       x2="16.364470"
       y2="30.928421" />
    <linearGradient
       inkscape:collect="always"
       xlink:href="#linearGradient4449"
       id="linearGradient4143"
       gradientUnits="userSpaceOnUse"
       gradientTransform="matrix(0.688766,0,0,0.688766,-0.6631,9.521717)"
       x1="16.364470"
       y1="39.918777"
       x2="16.364470"
       y2="30.928421" />
    <linearGradient
       inkscape:collect="always"
       xlink:href="#linearGradient4449"
       id="linearGradient4145"
       gradientUnits="userSpaceOnUse"
       gradientTransform="matrix(0.688766,0,0,0.688766,-2.040629,9.521717)"
       x1="16.364470"
       y1="39.918777"
       x2="16.364470"
       y2="30.928421" />
    <linearGradient
       inkscape:collect="always"
       xlink:href="#linearGradient4449"
       id="linearGradient4147"
       gradientUnits="userSpaceOnUse"
       gradientTransform="matrix(0.688766,0,0,0.688766,-3.418159,9.521717)"
       x1="16.364470"
       y1="39.918777"
       x2="16.364470"
       y2="30.928421" />
    <linearGradient
       inkscape:collect="always"
       xlink:href="#linearGradient4449"
       id="linearGradient4149"
       gradientUnits="userSpaceOnUse"
       gradientTransform="matrix(0.688766,0,0,0.688766,-4.795693,9.521717)"
       x1="16.364470"
       y1="39.918777"
       x2="16.364470"
       y2="30.928421" />
    <linearGradient
       inkscape:collect="always"
       xlink:href="#linearGradient4420"
       id="linearGradient4151"
       gradientUnits="userSpaceOnUse"
       gradientTransform="matrix(0.658413,0,0,0.688766,-6.061089,9.521717)"
       x1="27.324621"
       y1="26.887815"
       x2="22.311644"
       y2="26.786800" />
    <linearGradient
       inkscape:collect="always"
       xlink:href="#linearGradient4412"
       id="linearGradient4153"
       gradientUnits="userSpaceOnUse"
       gradientTransform="matrix(0.658413,0,0,0.688766,-6.061089,9.521717)"
       x1="27.324621"
       y1="26.887815"
       x2="22.311644"
       y2="26.786800" />
    <linearGradient
       inkscape:collect="always"
       xlink:href="#linearGradient4386"
       id="linearGradient4155"
       gradientUnits="userSpaceOnUse"
       gradientTransform="matrix(0.704136,0,0,0.704136,-7.020643,9.459728)"
       x1="24.349752"
       y1="34.463955"
       x2="23.233509"
       y2="10.018264" />
    <linearGradient
       inkscape:collect="always"
       xlink:href="#linearGradient6171"
       id="linearGradient4192"
       gradientUnits="userSpaceOnUse"
       x1="25.515011"
       y1="10.655476"
       x2="37.140110"
       y2="31.565634" />
    <linearGradient
       inkscape:collect="always"
       xlink:href="#linearGradient6187"
       id="linearGradient4194"
       gradientUnits="userSpaceOnUse"
       x1="32.587322"
       y1="28.554563"
       x2="38.547222"
       y2="28.554563" />
    <linearGradient
       inkscape:collect="always"
       xlink:href="#linearGradient6171"
       id="linearGradient4210"
       gradientUnits="userSpaceOnUse"
       x1="25.515011"
       y1="10.655476"
       x2="37.140110"
       y2="31.565634" />
    <linearGradient
       inkscape:collect="always"
       xlink:href="#linearGradient6187"
       id="linearGradient4212"
       gradientUnits="userSpaceOnUse"
       x1="32.587322"
       y1="28.554563"
       x2="38.547222"
       y2="28.554563" />
    <linearGradient
       inkscape:collect="always"
       xlink:href="#linearGradient6457"
       id="linearGradient4214"
       gradientUnits="userSpaceOnUse"
       gradientTransform="matrix(0.953806,0,0,1,1.832176,-4.562865e-16)"
       x1="36.067482"
       y1="19.061104"
       x2="38.278458"
       y2="26.435217" />
    <linearGradient
       inkscape:collect="always"
       xlink:href="#linearGradient6187"
       id="linearGradient4228"
       gradientUnits="userSpaceOnUse"
       x1="32.587322"
       y1="28.554563"
       x2="38.547222"
       y2="28.554563" />
    <radialGradient
       inkscape:collect="always"
       xlink:href="#linearGradient4543"
       id="radialGradient4272"
       gradientUnits="userSpaceOnUse"
       gradientTransform="matrix(1,0,0,0.394366,5.342954e-16,23.44202)"
       cx="23.536554"
       cy="38.706596"
       fx="23.536554"
       fy="38.706596"
       r="14.344166" />
    <linearGradient
       inkscape:collect="always"
       xlink:href="#linearGradient6171"
       id="linearGradient4274"
       gradientUnits="userSpaceOnUse"
       x1="25.515011"
       y1="10.655476"
       x2="37.140110"
       y2="31.565634" />
    <linearGradient
       inkscape:collect="always"
       xlink:href="#linearGradient6187"
       id="linearGradient4276"
       gradientUnits="userSpaceOnUse"
       x1="32.587322"
       y1="28.554563"
       x2="38.547222"
       y2="28.554563" />
    <linearGradient
       inkscape:collect="always"
       xlink:href="#linearGradient6457"
       id="linearGradient4278"
       gradientUnits="userSpaceOnUse"
       gradientTransform="matrix(0.953806,0,0,1,1.832176,-4.556902e-16)"
       x1="36.067482"
       y1="19.061104"
       x2="38.278458"
       y2="26.435217" />
    <radialGradient
       inkscape:collect="always"
       xlink:href="#linearGradient4543"
       id="radialGradient4296"
       gradientUnits="userSpaceOnUse"
       gradientTransform="matrix(1,0,0,0.394366,6.522566e-16,23.44202)"
       cx="23.536554"
       cy="38.706596"
       fx="23.536554"
       fy="38.706596"
       r="14.344166" />
    <linearGradient
       inkscape:collect="always"
       xlink:href="#linearGradient6171"
       id="linearGradient4298"
       gradientUnits="userSpaceOnUse"
       x1="25.515011"
       y1="10.655476"
       x2="37.140110"
       y2="31.565634" />
    <linearGradient
       inkscape:collect="always"
       xlink:href="#linearGradient6187"
       id="linearGradient4300"
       gradientUnits="userSpaceOnUse"
       x1="32.587322"
       y1="28.554563"
       x2="38.547222"
       y2="28.554563" />
    <linearGradient
       inkscape:collect="always"
       xlink:href="#linearGradient6457"
       id="linearGradient4302"
       gradientUnits="userSpaceOnUse"
       gradientTransform="matrix(0.953806,0,0,1,1.832176,-8.921358e-16)"
       x1="36.067482"
       y1="19.061104"
       x2="38.278458"
       y2="26.435217" />
    <radialGradient
       inkscape:collect="always"
       xlink:href="#linearGradient4543"
       id="radialGradient4318"
       gradientUnits="userSpaceOnUse"
       gradientTransform="matrix(1,0,0,0.394366,-1.179606e-16,23.44202)"
       cx="23.536554"
       cy="38.706596"
       fx="23.536554"
       fy="38.706596"
       r="14.344166" />
    <linearGradient
       inkscape:collect="always"
       xlink:href="#linearGradient6171"
       id="linearGradient4320"
       gradientUnits="userSpaceOnUse"
       x1="25.515011"
       y1="10.655476"
       x2="37.140110"
       y2="31.565634" />
    <linearGradient
       inkscape:collect="always"
       xlink:href="#linearGradient6187"
       id="linearGradient4322"
       gradientUnits="userSpaceOnUse"
       x1="32.587322"
       y1="28.554563"
       x2="38.547222"
       y2="28.554563" />
    <linearGradient
       inkscape:collect="always"
       xlink:href="#linearGradient6457"
       id="linearGradient4324"
       gradientUnits="userSpaceOnUse"
       gradientTransform="matrix(0.953806,0,0,1,1.832176,-1.327986e-15)"
       x1="36.067482"
       y1="19.061104"
       x2="38.278458"
       y2="26.435217" />
    <linearGradient
       inkscape:collect="always"
       xlink:href="#linearGradient4509"
       id="linearGradient4351"
       gradientUnits="userSpaceOnUse"
       gradientTransform="matrix(0.688766,0,0,0.688766,-4.169512,9.521717)"
       x1="16.364470"
       y1="39.918777"
       x2="16.364470"
       y2="30.928421" />
    <linearGradient
       inkscape:collect="always"
       xlink:href="#linearGradient4509"
       id="linearGradient4355"
       gradientUnits="userSpaceOnUse"
       gradientTransform="matrix(0.688766,0,0,0.688766,-4.169512,9.521717)"
       x1="16.364470"
       y1="39.918777"
       x2="16.364470"
       y2="30.928421" />
    <linearGradient
       inkscape:collect="always"
       xlink:href="#linearGradient4449"
       id="linearGradient4359"
       gradientUnits="userSpaceOnUse"
       gradientTransform="matrix(0.688766,0,0,0.688766,-4.795693,9.521717)"
       x1="16.364470"
       y1="39.918777"
       x2="16.364470"
       y2="30.928421" />
    <linearGradient
       inkscape:collect="always"
       xlink:href="#linearGradient4449"
       id="linearGradient4363"
       gradientUnits="userSpaceOnUse"
       gradientTransform="matrix(0.688766,0,0,0.688766,-4.795693,9.521717)"
       x1="16.364470"
       y1="39.918777"
       x2="16.364470"
       y2="30.928421" />
    <linearGradient
       inkscape:collect="always"
       xlink:href="#linearGradient4449"
       id="linearGradient4367"
       gradientUnits="userSpaceOnUse"
       gradientTransform="matrix(0.688766,0,0,0.688766,-4.795693,9.521717)"
       x1="16.364470"
       y1="39.918777"
       x2="16.364470"
       y2="30.928421" />
    <linearGradient
       inkscape:collect="always"
       xlink:href="#linearGradient4509"
       id="linearGradient4371"
       gradientUnits="userSpaceOnUse"
       gradientTransform="matrix(0.688766,0,0,0.688766,-4.169512,9.521717)"
       x1="16.364470"
       y1="39.918777"
       x2="16.364470"
       y2="30.928421" />
    <linearGradient
       inkscape:collect="always"
       xlink:href="#linearGradient4509"
       id="linearGradient4375"
       gradientUnits="userSpaceOnUse"
       gradientTransform="matrix(0.688766,0,0,0.688766,-4.169512,9.521717)"
       x1="16.364470"
       y1="39.918777"
       x2="16.364470"
       y2="30.928421" />
    <linearGradient
       inkscape:collect="always"
       xlink:href="#linearGradient4509"
       id="linearGradient4379"
       gradientUnits="userSpaceOnUse"
       gradientTransform="matrix(0.688766,0,0,0.688766,-4.169512,9.521717)"
       x1="16.364470"
       y1="39.918777"
       x2="16.364470"
       y2="30.928421" />
    <linearGradient
       inkscape:collect="always"
       xlink:href="#linearGradient4509"
       id="linearGradient4383"
       gradientUnits="userSpaceOnUse"
       gradientTransform="matrix(0.688766,0,0,0.688766,-5.547044,9.521717)"
       x1="16.364470"
       y1="39.918777"
       x2="16.364470"
       y2="30.928421" />
    <linearGradient
       inkscape:collect="always"
       xlink:href="#linearGradient5048"
       id="linearGradient17044"
       gradientUnits="userSpaceOnUse"
       gradientTransform="matrix(2.774389,0,0,1.969706,-1892.179,-872.8854)"
       x1="302.85715"
       y1="366.64789"
       x2="302.85715"
       y2="609.50507" />
    <radialGradient
       inkscape:collect="always"
       xlink:href="#linearGradient5060"
       id="radialGradient17046"
       gradientUnits="userSpaceOnUse"
       gradientTransform="matrix(2.774389,0,0,1.969706,-1891.633,-872.8854)"
       cx="605.71429"
       cy="486.64789"
       fx="605.71429"
       fy="486.64789"
       r="117.14286" />
    <radialGradient
       inkscape:collect="always"
       xlink:href="#linearGradient5060"
       id="radialGradient17048"
       gradientUnits="userSpaceOnUse"
       gradientTransform="matrix(-2.774389,0,0,1.969706,112.7623,-872.8854)"
       cx="605.71429"
       cy="486.64789"
       fx="605.71429"
       fy="486.64789"
       r="117.14286" />
    <linearGradient
       inkscape:collect="always"
       xlink:href="#linearGradient5048"
       id="linearGradient17058"
       gradientUnits="userSpaceOnUse"
       gradientTransform="matrix(2.774389,0,0,1.969706,-1892.179,-872.8854)"
       x1="302.85715"
       y1="366.64789"
       x2="302.85715"
       y2="609.50507" />
    <radialGradient
       inkscape:collect="always"
       xlink:href="#linearGradient5060"
       id="radialGradient17060"
       gradientUnits="userSpaceOnUse"
       gradientTransform="matrix(2.774389,0,0,1.969706,-1891.633,-872.8854)"
       cx="605.71429"
       cy="486.64789"
       fx="605.71429"
       fy="486.64789"
       r="117.14286" />
    <radialGradient
       inkscape:collect="always"
       xlink:href="#linearGradient5060"
       id="radialGradient17062"
       gradientUnits="userSpaceOnUse"
       gradientTransform="matrix(-2.774389,0,0,1.969706,112.7623,-872.8854)"
       cx="605.71429"
       cy="486.64789"
       fx="605.71429"
       fy="486.64789"
       r="117.14286" />
  </defs>
  <sodipodi:namedview
     fill="#204a87"
     inkscape:showpageshadow="false"
     showborder="true"
     inkscape:window-y="30"
     inkscape:window-x="0"
     inkscape:window-height="818"
     inkscape:window-width="1030"
     inkscape:document-units="px"
     inkscape:grid-bbox="true"
     showgrid="false"
     inkscape:current-layer="layer1"
     inkscape:cy="-7.9970736"
     inkscape:cx="-149.25107"
     inkscape:zoom="1"
     inkscape:pageshadow="2"
     inkscape:pageopacity="0.0"
     borderopacity="0.81568627"
     bordercolor="#666666"
     pagecolor="#ffffff"
     id="base">
    <inkscape:grid
       id="GridFromPre046Settings"
       type="xygrid"
       originx="0px"
       originy="0px"
       spacingx="1px"
       spacingy="1px"
       color="#0000ff"
       empcolor="#0000ff"
       opacity="0.2"
       empopacity="0.4"
       empspacing="4" />
  </sodipodi:namedview>
  <metadata
     id="metadata4">
    <rdf:RDF>
      <cc:Work
         rdf:about="">
        <dc:format>image/svg+xml</dc:format>
        <dc:type
           rdf:resource="http://purl.org/dc/dcmitype/StillImage" />
        <dc:title>Workgroup</dc:title>
        <dc:creator>
          <cc:Agent>
            <dc:title>Jakub Steiner</dc:title>
          </cc:Agent>
        </dc:creator>
        <dc:source>http://jimmac.musichall.cz</dc:source>
        <cc:license
           rdf:resource="http://creativecommons.org/licenses/publicdomain/" />
        <dc:subject>
          <rdf:Bag>
            <rdf:li>lan</rdf:li>
            <rdf:li>workgroup</rdf:li>
            <rdf:li>network</rdf:li>
            <rdf:li>peer</rdf:li>
          </rdf:Bag>
        </dc:subject>
        <dc:contributor>
          <cc:Agent>
            <dc:title>Garrett LeSage</dc:title>
          </cc:Agent>
        </dc:contributor>
      </cc:Work>
      <cc:License
         rdf:about="http://creativecommons.org/licenses/publicdomain/">
        <cc:permits
           rdf:resource="http://creativecommons.org/ns#Reproduction" />
        <cc:permits
           rdf:resource="http://creativecommons.org/ns#Distribution" />
        <cc:permits
           rdf:resource="http://creativecommons.org/ns#DerivativeWorks" />
      </cc:License>
    </rdf:RDF>
  </metadata>
  <g
     inkscape:groupmode="layer"
     inkscape:label="Layer 1"
     id="layer1">
    <g
       style="display:inline"
       transform="matrix(1.177561e-2,0,0,1.190072e-2,47.31849,34.72232)"
       id="g6707">
      <rect
         style="opacity:0.40206185;color:black;fill:url(#linearGradient6715);fill-opacity:1;fill-rule:nonzero;stroke:none;stroke-width:1;stroke-linecap:round;stroke-linejoin:miter;marker:none;marker-start:none;marker-mid:none;marker-end:none;stroke-miterlimit:4;stroke-dasharray:none;stroke-dashoffset:0;stroke-opacity:1;visibility:visible;display:inline;overflow:visible"
         id="rect6709"
         width="1339.6335"
         height="478.35718"
         x="-1559.2523"
         y="-150.69685" />
      <path
         style="opacity:0.40206185;color:black;fill:url(#radialGradient6717);fill-opacity:1;fill-rule:nonzero;stroke:none;stroke-width:1;stroke-linecap:round;stroke-linejoin:miter;marker:none;marker-start:none;marker-mid:none;marker-end:none;stroke-miterlimit:4;stroke-dasharray:none;stroke-dashoffset:0;stroke-opacity:1;visibility:visible;display:inline;overflow:visible"
         d="M -219.61876,-150.68038 C -219.61876,-150.68038 -219.61876,327.65041 -219.61876,327.65041 C -76.744594,328.55086 125.78146,220.48075 125.78138,88.454235 C 125.78138,-43.572302 -33.655436,-150.68036 -219.61876,-150.68038 z "
         id="path6711"
         sodipodi:nodetypes="cccc" />
      <path
         sodipodi:nodetypes="cccc"
         id="path6713"
         d="M -1559.2523,-150.68038 C -1559.2523,-150.68038 -1559.2523,327.65041 -1559.2523,327.65041 C -1702.1265,328.55086 -1904.6525,220.48075 -1904.6525,88.454235 C -1904.6525,-43.572302 -1745.2157,-150.68036 -1559.2523,-150.68038 z "
         style="opacity:0.40206185;color:black;fill:url(#radialGradient6719);fill-opacity:1;fill-rule:nonzero;stroke:none;stroke-width:1;stroke-linecap:round;stroke-linejoin:miter;marker:none;marker-start:none;marker-mid:none;marker-end:none;stroke-miterlimit:4;stroke-dasharray:none;stroke-dashoffset:0;stroke-opacity:1;visibility:visible;display:inline;overflow:visible" />
    </g>
    <g
       id="g17036"
       transform="matrix(1.177561e-2,0,0,1.190072e-2,41.31338,25.28572)"
       style="display:inline">
      <rect
         y="-150.69685"
         x="-1559.2523"
         height="478.35718"
         width="1339.6335"
         id="rect17038"
         style="opacity:0.40206185;color:black;fill:url(#linearGradient17044);fill-opacity:1;fill-rule:nonzero;stroke:none;stroke-width:1;stroke-linecap:round;stroke-linejoin:miter;marker:none;marker-start:none;marker-mid:none;marker-end:none;stroke-miterlimit:4;stroke-dasharray:none;stroke-dashoffset:0;stroke-opacity:1;visibility:visible;display:inline;overflow:visible" />
      <path
         sodipodi:nodetypes="cccc"
         id="path17040"
         d="M -219.61876,-150.68038 C -219.61876,-150.68038 -219.61876,327.65041 -219.61876,327.65041 C -76.744594,328.55086 125.78146,220.48075 125.78138,88.454235 C 125.78138,-43.572302 -33.655436,-150.68036 -219.61876,-150.68038 z "
         style="opacity:0.40206185;color:black;fill:url(#radialGradient17046);fill-opacity:1;fill-rule:nonzero;stroke:none;stroke-width:1;stroke-linecap:round;stroke-linejoin:miter;marker:none;marker-start:none;marker-mid:none;marker-end:none;stroke-miterlimit:4;stroke-dasharray:none;stroke-dashoffset:0;stroke-opacity:1;visibility:visible;display:inline;overflow:visible" />
      <path
         style="opacity:0.40206185;color:black;fill:url(#radialGradient17048);fill-opacity:1;fill-rule:nonzero;stroke:none;stroke-width:1;stroke-linecap:round;stroke-linejoin:miter;marker:none;marker-start:none;marker-mid:none;marker-end:none;stroke-miterlimit:4;stroke-dasharray:none;stroke-dashoffset:0;stroke-opacity:1;visibility:visible;display:inline;overflow:visible"
         d="M -1559.2523,-150.68038 C -1559.2523,-150.68038 -1559.2523,327.65041 -1559.2523,327.65041 C -1702.1265,328.55086 -1904.6525,220.48075 -1904.6525,88.454235 C -1904.6525,-43.572302 -1745.2157,-150.68036 -1559.2523,-150.68038 z "
         id="path17042"
         sodipodi:nodetypes="cccc" />
    </g>
    <g
       id="g6252"
       style="opacity:0.63428566"
       transform="matrix(-3.754588e-18,-0.246288,0.690294,-2.362713e-18,2.083163,42.95947)"
       inkscape:r_cx="true"
       inkscape:r_cy="true">
      <rect
         style="color:#000000;fill:url(#linearGradient6262);fill-opacity:1;fill-rule:nonzero;stroke:none;stroke-width:1;stroke-linecap:butt;stroke-linejoin:miter;marker:none;marker-start:none;marker-mid:none;marker-end:none;stroke-miterlimit:4;stroke-dashoffset:0;stroke-opacity:1;visibility:visible;display:block;overflow:visible"
         id="rect6254"
         width="36.542522"
         height="4"
         x="36.377991"
         y="30.647318"
         inkscape:r_cx="true"
         inkscape:r_cy="true" />
      <rect
         style="color:#000000;fill:url(#linearGradient6264);fill-opacity:1;fill-rule:nonzero;stroke:none;stroke-width:1;stroke-linecap:butt;stroke-linejoin:miter;marker:none;marker-start:none;marker-mid:none;marker-end:none;stroke-miterlimit:4;stroke-dashoffset:0;stroke-opacity:1;visibility:visible;display:block;overflow:visible"
         id="rect6256"
         width="36.542522"
         height="0.98959237"
         x="36.377991"
         y="33.649292"
         inkscape:r_cx="true"
         inkscape:r_cy="true" />
      <rect
         style="color:#000000;fill:url(#linearGradient6266);fill-opacity:1;fill-rule:nonzero;stroke:none;stroke-width:1;stroke-linecap:butt;stroke-linejoin:miter;marker:none;marker-start:none;marker-mid:none;marker-end:none;stroke-miterlimit:4;stroke-dashoffset:0;stroke-opacity:1;visibility:visible;display:block;overflow:visible"
         id="rect6258"
         width="36.542522"
         height="1.022747"
         x="36.377991"
         y="30.301344"
         inkscape:r_cx="true"
         inkscape:r_cy="true" />
      <rect
         style="color:#000000;fill:url(#linearGradient6268);fill-opacity:1;fill-rule:nonzero;stroke:none;stroke-width:1;stroke-linecap:butt;stroke-linejoin:miter;marker:none;marker-start:none;marker-mid:none;marker-end:none;stroke-miterlimit:4;stroke-dashoffset:0;stroke-opacity:1;visibility:visible;display:block;overflow:visible"
         id="rect6260"
         width="36.542522"
         height="1.6187184"
         x="36.377991"
         y="31.425039"
         inkscape:r_cx="true"
         inkscape:r_cy="true" />
    </g>
    <g
       id="g4338">
      <rect
         transform="matrix(0.969244,0,0,0.981438,3.8167e-2,-3.505493)"
         style="color:#000000;fill:#d4d4d4;fill-opacity:1;fill-rule:evenodd;stroke:#5e5e5e;stroke-width:1.02530253;stroke-linecap:butt;stroke-linejoin:miter;marker:none;marker-start:none;marker-mid:none;marker-end:none;stroke-miterlimit:4;stroke-dasharray:none;stroke-dashoffset:0;stroke-opacity:1;visibility:visible;display:inline;overflow:visible"
         id="rect4248"
         width="18.571428"
         height="4.0756545"
         x="22.142859"
         y="26.497339"
         rx="1.2981558"
         ry="1.282028"
         inkscape:r_cx="true"
         inkscape:r_cy="true" />
      <rect
         transform="matrix(0.969244,0,0,0.993184,3.8167e-2,-3.864618)"
         ry="2.5890758"
         rx="2.6530242"
         y="9.4285717"
         x="22.142859"
         height="17"
         width="18.571428"
         id="rect4250"
         style="color:#000000;fill:#d4d4d4;fill-opacity:1;fill-rule:evenodd;stroke:#5e5e5e;stroke-width:1.01922131;stroke-linecap:butt;stroke-linejoin:miter;marker:none;marker-start:none;marker-mid:none;marker-end:none;stroke-miterlimit:4;stroke-dasharray:none;stroke-dashoffset:0;stroke-opacity:1;visibility:visible;display:inline;overflow:visible"
         inkscape:r_cx="true"
         inkscape:r_cy="true" />
      <rect
         transform="matrix(0.991903,0,0,1.016747,-0.403836,-4.408625)"
         ry="0.56201601"
         rx="0.5760926"
         y="12.268107"
         x="24.603045"
         height="10.818813"
         width="14.114283"
         id="rect4252"
         style="opacity:0.66285712;color:#000000;fill:#ffffff;fill-opacity:1;fill-rule:evenodd;stroke:#ffffff;stroke-width:0.99576914;stroke-linecap:butt;stroke-linejoin:miter;marker:none;marker-start:none;marker-mid:none;marker-end:none;stroke-miterlimit:4;stroke-dasharray:none;stroke-dashoffset:0;stroke-opacity:1;visibility:visible;display:inline;overflow:visible"
         inkscape:r_cx="true"
         inkscape:r_cy="true" />
      <rect
         transform="matrix(0.991903,0,0,1.016747,-0.603245,-4.357333)"
         style="color:#000000;fill:#204a87;fill-opacity:1;fill-rule:evenodd;stroke:#5e5e5e;stroke-width:0.99576914;stroke-linecap:butt;stroke-linejoin:miter;marker:none;marker-start:none;marker-mid:none;marker-end:none;stroke-miterlimit:4;stroke-dasharray:none;stroke-dashoffset:0;stroke-opacity:1;visibility:visible;display:inline;overflow:visible;font-family:Bitstream Vera Sans"
         id="rect4254"
         width="14.114283"
         height="10.818813"
         x="24.299999"
         y="11.662017"
         rx="0.5760926"
         ry="0.56201613"
         inkscape:r_cx="true"
         inkscape:r_cy="true" />
      <rect
         transform="matrix(0.991903,0,0,1.016747,-0.603245,-4.357333)"
         ry="0"
         y="12.142857"
         x="24.785715"
         height="1.5000008"
         width="13.071424"
         id="rect4256"
         style="color:#000000;fill:#ffffff;fill-opacity:1;fill-rule:evenodd;stroke:none;stroke-width:1;stroke-linecap:butt;stroke-linejoin:miter;marker:none;marker-start:none;marker-mid:none;marker-end:none;stroke-miterlimit:4;stroke-dasharray:none;stroke-dashoffset:0;stroke-opacity:1;visibility:visible;display:inline;overflow:visible"
         inkscape:r_cx="true"
         inkscape:r_cy="true" />
      <rect
         transform="matrix(0.991903,0,0,1.016747,-0.603245,-4.357333)"
         style="color:#000000;fill:#a4a0b5;fill-opacity:1;fill-rule:evenodd;stroke:none;stroke-width:1;stroke-linecap:butt;stroke-linejoin:miter;marker:none;marker-start:none;marker-mid:none;marker-end:none;stroke-miterlimit:4;stroke-dasharray:none;stroke-dashoffset:0;stroke-opacity:1;visibility:visible;display:inline;overflow:visible"
         id="rect4258"
         width="2.9294424"
         height="1.1111678"
         x="25.819298"
         y="12.341616"
         inkscape:r_cx="true"
         inkscape:r_cy="true" />
      <rect
         transform="matrix(0.969244,0,0,0.993184,3.8167e-2,-3.864618)"
         style="opacity:0.62857145;color:#000000;fill:none;fill-opacity:1;fill-rule:evenodd;stroke:url(#linearGradient4320);stroke-width:1.01922143;stroke-linecap:butt;stroke-linejoin:miter;marker:none;marker-start:none;marker-mid:none;marker-end:none;stroke-miterlimit:4;stroke-dasharray:none;stroke-dashoffset:0;stroke-opacity:1;visibility:visible;display:inline;overflow:visible"
         id="rect4264"
         width="16.281954"
         height="14.90425"
         x="23.2876"
         y="10.476448"
         rx="1.5065978"
         ry="1.4702829"
         inkscape:r_cx="true"
         inkscape:r_cy="true" />
      <rect
         transform="matrix(0.969244,0,0,0.981438,3.8167e-2,-3.505493)"
         ry="0.45862138"
         rx="0.46439081"
         y="27.470701"
         x="23.006697"
         height="2.1289344"
         width="16.843739"
         id="rect4266"
         style="opacity:0.5142857;color:#000000;fill:none;fill-opacity:1;fill-rule:evenodd;stroke:#fdfdfd;stroke-width:1.02530253;stroke-linecap:butt;stroke-linejoin:miter;marker:none;marker-start:none;marker-mid:none;marker-end:none;stroke-miterlimit:4;stroke-dasharray:none;stroke-dashoffset:0;stroke-opacity:1;visibility:visible;display:inline;overflow:visible"
         inkscape:r_cx="true"
         inkscape:r_cy="true" />
      <rect
         transform="matrix(0.969244,0,0,0.981438,3.8167e-2,-3.505493)"
         y="27.99898"
         x="32.587322"
         height="1.1111678"
         width="5.9598999"
         id="rect4268"
         style="opacity:0.31999996;color:#000000;fill:url(#linearGradient4322);fill-opacity:1;fill-rule:evenodd;stroke:none;stroke-width:1;stroke-linecap:butt;stroke-linejoin:miter;marker:none;marker-start:none;marker-mid:none;marker-end:none;stroke-miterlimit:4;stroke-dasharray:none;stroke-dashoffset:0;stroke-opacity:1;visibility:visible;display:inline;overflow:visible"
         inkscape:r_cx="true"
         inkscape:r_cy="true" />
      <path
         inkscape:r_cy="true"
         inkscape:r_cx="true"
         transform="matrix(1.038793,0,0,1.014783,-8.534756,-10.40561)"
         style="opacity:0.32571423;color:#000000;fill:url(#linearGradient4324);fill-opacity:1;fill-rule:evenodd;stroke:none;stroke-width:0.99999982;stroke-linecap:butt;stroke-linejoin:miter;marker:none;marker-start:none;marker-mid:none;marker-end:none;stroke-miterlimit:4;stroke-dasharray:none;stroke-dashoffset:0;stroke-opacity:1;visibility:visible;display:inline;overflow:visible;font-family:Bitstream Vera Sans"
         d="M 31.319767,18.137473 L 31.319767,24.832614 C 31.948313,24.884804 32.508165,25.035497 33.162006,25.035497 C 37.657111,25.035497 41.439535,23.673222 43.834296,21.72174 L 43.834296,18.137473 L 31.319767,18.137473 z "
         id="path4270" />
    </g>
    <g
       transform="matrix(0.507951,0,0,0.674592,-6.478237,12.6272)"
       style="opacity:0.63428566"
       id="g5391"
       inkscape:r_cx="true"
       inkscape:r_cy="true">
      <rect
         y="30.647318"
         x="36.377991"
         height="4"
         width="36.542522"
         id="rect69"
         style="color:#000000;fill:url(#linearGradient5397);fill-opacity:1;fill-rule:nonzero;stroke:none;stroke-width:1;stroke-linecap:butt;stroke-linejoin:miter;marker:none;marker-start:none;marker-mid:none;marker-end:none;stroke-miterlimit:4;stroke-dashoffset:0;stroke-opacity:1;visibility:visible;display:block;overflow:visible"
         inkscape:r_cx="true"
         inkscape:r_cy="true" />
      <rect
         y="33.649292"
         x="36.377991"
         height="0.98959237"
         width="36.542522"
         id="rect255"
         style="color:#000000;fill:url(#linearGradient5399);fill-opacity:1;fill-rule:nonzero;stroke:none;stroke-width:1;stroke-linecap:butt;stroke-linejoin:miter;marker:none;marker-start:none;marker-mid:none;marker-end:none;stroke-miterlimit:4;stroke-dashoffset:0;stroke-opacity:1;visibility:visible;display:block;overflow:visible"
         inkscape:r_cx="true"
         inkscape:r_cy="true" />
      <rect
         y="30.301344"
         x="36.377991"
         height="1.022747"
         width="36.542522"
         id="rect250"
         style="color:#000000;fill:url(#linearGradient5401);fill-opacity:1;fill-rule:nonzero;stroke:none;stroke-width:1;stroke-linecap:butt;stroke-linejoin:miter;marker:none;marker-start:none;marker-mid:none;marker-end:none;stroke-miterlimit:4;stroke-dashoffset:0;stroke-opacity:1;visibility:visible;display:block;overflow:visible"
         inkscape:r_cx="true"
         inkscape:r_cy="true" />
      <rect
         y="31.425039"
         x="36.377991"
         height="1.6187184"
         width="36.542522"
         id="rect176"
         style="color:#000000;fill:url(#linearGradient5403);fill-opacity:1;fill-rule:nonzero;stroke:none;stroke-width:1;stroke-linecap:butt;stroke-linejoin:miter;marker:none;marker-start:none;marker-mid:none;marker-end:none;stroke-miterlimit:4;stroke-dashoffset:0;stroke-opacity:1;visibility:visible;display:block;overflow:visible"
         inkscape:r_cx="true"
         inkscape:r_cy="true" />
    </g>
    <path
       sodipodi:type="arc"
       style="opacity:1;color:#000000;fill:#eaeaea;fill-opacity:1;fill-rule:evenodd;stroke:#8a8a8a;stroke-width:1.08591402;stroke-linecap:butt;stroke-linejoin:miter;marker:none;marker-start:none;marker-mid:none;marker-end:none;stroke-miterlimit:4;stroke-dasharray:none;stroke-dashoffset:0;stroke-opacity:1;visibility:visible;display:inline;overflow:visible"
       id="path5405"
       sodipodi:cx="66.013466"
       sodipodi:cy="26.231213"
       sodipodi:rx="2.171828"
       sodipodi:ry="2.171828"
       d="M 68.185294 26.231213 A 2.171828 2.171828 0 1 1  63.841638,26.231213 A 2.171828 2.171828 0 1 1  68.185294 26.231213 z"
       transform="matrix(0.920883,0,0,0.920883,-36.29069,10.34411)"
       inkscape:r_cx="true"
       inkscape:r_cy="true" />
    <g
       style="display:inline"
       transform="matrix(9.661796e-3,0,0,1.408546e-2,17.81957,36.70842)"
       id="g17050">
      <rect
         style="opacity:0.40206185;color:black;fill:url(#linearGradient17058);fill-opacity:1;fill-rule:nonzero;stroke:none;stroke-width:1;stroke-linecap:round;stroke-linejoin:miter;marker:none;marker-start:none;marker-mid:none;marker-end:none;stroke-miterlimit:4;stroke-dasharray:none;stroke-dashoffset:0;stroke-opacity:1;visibility:visible;display:inline;overflow:visible"
         id="rect17052"
         width="1339.6335"
         height="478.35718"
         x="-1559.2523"
         y="-150.69685" />
      <path
         style="opacity:0.40206185;color:black;fill:url(#radialGradient17060);fill-opacity:1;fill-rule:nonzero;stroke:none;stroke-width:1;stroke-linecap:round;stroke-linejoin:miter;marker:none;marker-start:none;marker-mid:none;marker-end:none;stroke-miterlimit:4;stroke-dasharray:none;stroke-dashoffset:0;stroke-opacity:1;visibility:visible;display:inline;overflow:visible"
         d="M -219.61876,-150.68038 C -219.61876,-150.68038 -219.61876,327.65041 -219.61876,327.65041 C -76.744594,328.55086 125.78146,220.48075 125.78138,88.454235 C 125.78138,-43.572302 -33.655436,-150.68036 -219.61876,-150.68038 z "
         id="path17054"
         sodipodi:nodetypes="cccc" />
      <path
         sodipodi:nodetypes="cccc"
         id="path17056"
         d="M -1559.2523,-150.68038 C -1559.2523,-150.68038 -1559.2523,327.65041 -1559.2523,327.65041 C -1702.1265,328.55086 -1904.6525,220.48075 -1904.6525,88.454235 C -1904.6525,-43.572302 -1745.2157,-150.68036 -1559.2523,-150.68038 z "
         style="opacity:0.40206185;color:black;fill:url(#radialGradient17062);fill-opacity:1;fill-rule:nonzero;stroke:none;stroke-width:1;stroke-linecap:round;stroke-linejoin:miter;marker:none;marker-start:none;marker-mid:none;marker-end:none;stroke-miterlimit:4;stroke-dasharray:none;stroke-dashoffset:0;stroke-opacity:1;visibility:visible;display:inline;overflow:visible" />
    </g>
    <path
       inkscape:r_cy="true"
       inkscape:r_cx="true"
       sodipodi:nodetypes="ccccccc"
       id="path3626"
       d="M 1.7576149,14.806863 L 1.7576149,38.421513 L 17.221957,38.421513 L 17.221957,14.664607 L 14.376818,11.677212 L 4.4604971,11.677212 L 1.7576149,14.806863 z "
       style="fill:url(#linearGradient4155);fill-opacity:1;fill-rule:evenodd;stroke:#5e5e5e;stroke-width:1.01054168px;stroke-linecap:round;stroke-linejoin:round;stroke-opacity:1"
       transform="matrix(0.969973,0,0,1.009561,-0.204839,-0.288861)" />
    <path
       inkscape:r_cy="true"
       inkscape:r_cx="true"
       id="path5791"
       d="M 4.6551772,12.276779 L 2.2936952,15.622212 L 16.265801,15.622212 L 13.70753,12.375174 L 4.6551772,12.276779 z "
       style="fill:#ffffff;fill-opacity:0.65536726;fill-rule:evenodd;stroke:none;stroke-width:1px;stroke-linecap:butt;stroke-linejoin:miter;stroke-opacity:1"
       transform="matrix(0.969973,0,0,1.009561,-0.204839,-0.288861)" />
    <rect
       inkscape:r_cy="true"
       inkscape:r_cx="true"
       style="opacity:0.34857142;color:#000000;fill:#ffffff;fill-opacity:1;fill-rule:evenodd;stroke:#ffffff;stroke-width:1.01054132;stroke-linecap:butt;stroke-linejoin:miter;marker:none;marker-start:none;marker-mid:none;marker-end:none;stroke-miterlimit:4;stroke-dasharray:none;stroke-dashoffset:0;stroke-opacity:1;visibility:visible;display:inline;overflow:visible"
       id="rect4553"
       width="10.745445"
       height="2.9221869"
       x="4.6709228"
       y="17.298824"
       transform="matrix(0.969973,0,0,1.009561,-0.204839,-0.288861)" />
    <path
       inkscape:r_cy="true"
       inkscape:r_cx="true"
       sodipodi:nodetypes="ccccccc"
       style="fill:none;fill-opacity:1;fill-rule:evenodd;stroke:#ffffff;stroke-width:1.01804113;stroke-linecap:butt;stroke-linejoin:miter;stroke-miterlimit:4;stroke-dasharray:none;stroke-opacity:1"
       d="M 2.6140842,15.460326 L 2.6140842,37.350015 L 16.26711,37.350015 L 16.26711,15.33391 L 13.738773,12.679155 L 5.0160052,12.679155 L 2.6140842,15.460326 z "
       id="path4394"
       transform="matrix(0.95217,0,0,1.013341,1.094836e-2,-0.34831)" />
    <rect
       inkscape:r_cy="true"
       inkscape:r_cx="true"
       style="opacity:0.52571429;color:#000000;fill:url(#linearGradient4151);fill-opacity:1;fill-rule:evenodd;stroke:url(#linearGradient4153);stroke-width:1.11407018;stroke-linecap:butt;stroke-linejoin:miter;marker:none;marker-start:none;marker-mid:none;marker-end:none;stroke-miterlimit:4;stroke-dasharray:none;stroke-dashoffset:0;stroke-opacity:1;visibility:visible;display:inline;overflow:visible"
       id="rect4408"
       width="7.5055389"
       height="3.4726565"
       x="8.1770363"
       y="25.748194"
       transform="matrix(0.932644,0,0,0.863892,-0.126267,5.256346)" />
    <rect
       inkscape:r_cy="true"
       inkscape:r_cx="true"
       y="25.675547"
       x="7.6460471"
       height="2.9221869"
       width="7.1968474"
       id="rect4398"
       style="color:#000000;fill:#c8c8c8;fill-opacity:1;fill-rule:evenodd;stroke:#acacac;stroke-width:1.00072753;stroke-linecap:butt;stroke-linejoin:miter;marker:none;marker-start:none;marker-mid:none;marker-end:none;stroke-miterlimit:4;stroke-dasharray:none;stroke-dashoffset:0;stroke-opacity:1;visibility:visible;display:inline;overflow:visible"
       transform="matrix(0.972648,0,0,1.026628,-0.225292,0.140766)" />
    <rect
       inkscape:r_cy="true"
       inkscape:r_cx="true"
       y="21.431417"
       x="4.6709228"
       height="2.9221869"
       width="10.745445"
       id="rect4551"
       style="opacity:0.34857142;color:#000000;fill:#ffffff;fill-opacity:1;fill-rule:evenodd;stroke:#ffffff;stroke-width:1.01054132;stroke-linecap:butt;stroke-linejoin:miter;marker:none;marker-start:none;marker-mid:none;marker-end:none;stroke-miterlimit:4;stroke-dasharray:none;stroke-dashoffset:0;stroke-opacity:1;visibility:visible;display:inline;overflow:visible"
       transform="matrix(0.969973,0,0,1.009561,-0.204839,-0.288861)" />
    <rect
       inkscape:r_cy="true"
       inkscape:r_cx="true"
       style="color:#000000;fill:#c8c8c8;fill-opacity:1;fill-rule:evenodd;stroke:#acacac;stroke-width:0.98137802;stroke-linecap:butt;stroke-linejoin:miter;marker:none;marker-start:none;marker-mid:none;marker-end:none;stroke-miterlimit:4;stroke-dasharray:none;stroke-dashoffset:0;stroke-opacity:1;visibility:visible;display:inline;overflow:visible"
       id="rect4430"
       width="10.876217"
       height="2.9221869"
       x="3.9793577"
       y="20.805237"
       transform="matrix(1.011381,0,0,1.026628,-0.524645,0.140762)" />
    <rect
       inkscape:r_cy="true"
       inkscape:r_cx="true"
       y="16.672642"
       x="3.9793577"
       height="2.9221869"
       width="10.876217"
       id="rect4436"
       style="color:#000000;fill:#c8c8c8;fill-opacity:1;fill-rule:evenodd;stroke:#acacac;stroke-width:0.98137802;stroke-linecap:butt;stroke-linejoin:miter;marker:none;marker-start:none;marker-mid:none;marker-end:none;stroke-miterlimit:4;stroke-dasharray:none;stroke-dashoffset:0;stroke-opacity:1;visibility:visible;display:inline;overflow:visible"
       transform="matrix(1.011381,0,0,1.026628,-0.524646,-0.616603)" />
    <g
       id="g4157">
      <path
         sodipodi:type="arc"
         style="color:#000000;fill:#c8c8c8;fill-opacity:1;fill-rule:evenodd;stroke:#979797;stroke-width:2.17183518;stroke-linecap:butt;stroke-linejoin:miter;marker:none;marker-start:none;marker-mid:none;marker-end:none;stroke-miterlimit:4;stroke-dasharray:none;stroke-dashoffset:0;stroke-opacity:1;visibility:visible;display:inline;overflow:visible"
         id="path4396"
         sodipodi:cx="66.013466"
         sodipodi:cy="26.231213"
         sodipodi:rx="2.171828"
         sodipodi:ry="2.171828"
         d="M 68.185294 26.231213 A 2.171828 2.171828 0 1 1  63.841638,26.231213 A 2.171828 2.171828 0 1 1  68.185294 26.231213 z"
         transform="matrix(0.460441,0,0,0.460441,-25.89533,16.42209)"
         inkscape:r_cx="true"
         inkscape:r_cy="true" />
      <path
         sodipodi:type="arc"
         style="color:#000000;fill:#ffffff;fill-opacity:1;fill-rule:evenodd;stroke:none;stroke-width:1;stroke-linecap:butt;stroke-linejoin:miter;marker:none;marker-start:none;marker-mid:none;marker-end:none;stroke-miterlimit:4;stroke-dasharray:none;stroke-dashoffset:0;stroke-opacity:1;visibility:visible;display:inline;overflow:visible"
         id="path4445"
         sodipodi:cx="16.162441"
         sodipodi:cy="25.574614"
         sodipodi:rx="0.50507629"
         sodipodi:ry="0.50507629"
         d="M 16.667518 25.574614 A 0.50507629 0.50507629 0 1 1  15.657365,25.574614 A 0.50507629 0.50507629 0 1 1  16.667518 25.574614 z"
         transform="matrix(0.595536,0,0,0.595535,-5.456149,13.05887)"
         inkscape:r_cx="true"
         inkscape:r_cy="true" />
    </g>
    <rect
       inkscape:r_cy="true"
       inkscape:r_cx="true"
       style="color:#000000;fill:url(#linearGradient4149);fill-opacity:1;fill-rule:evenodd;stroke:none;stroke-width:1;stroke-linecap:butt;stroke-linejoin:miter;marker:none;marker-start:none;marker-mid:none;marker-end:none;stroke-miterlimit:4;stroke-dasharray:none;stroke-dashoffset:0;stroke-opacity:1;visibility:visible;display:inline;overflow:visible;opacity:0.2"
       id="rect4457"
       width="0.69575834"
       height="6.9575834"
       x="6.4755893"
       y="30.058815"
       transform="matrix(1.437281,0,0,1.006096,-3.307241,-0.242067)" />
    <rect
       inkscape:r_cy="true"
       inkscape:r_cx="true"
       style="opacity:0.2;color:#000000;fill:url(#linearGradient4137);fill-opacity:1;fill-rule:evenodd;stroke:none;stroke-width:1;stroke-linecap:butt;stroke-linejoin:miter;marker:none;marker-start:none;marker-mid:none;marker-end:none;stroke-miterlimit:4;stroke-dasharray:none;stroke-dashoffset:0;stroke-opacity:1;visibility:visible;display:inline;overflow:visible"
       id="rect4481"
       width="0.69575834"
       height="6.9575834"
       x="5.7242408"
       y="30.058815"
       transform="matrix(1.437281,0,0,1.006096,-3.22734,-0.242067)" />
    <rect
       inkscape:r_cy="true"
       inkscape:r_cx="true"
       y="30.058815"
       x="7.1017718"
       height="6.9575834"
       width="0.69575834"
       id="rect4483"
       style="opacity:0.2;color:#000000;fill:url(#linearGradient4355);fill-opacity:1;fill-rule:evenodd;stroke:none;stroke-width:1;stroke-linecap:butt;stroke-linejoin:miter;marker:none;marker-start:none;marker-mid:none;marker-end:none;stroke-miterlimit:4;stroke-dasharray:none;stroke-dashoffset:0;stroke-opacity:1;visibility:visible;display:inline;overflow:visible"
       transform="matrix(1.437281,0,0,1.006096,-3.207242,-0.24205)" />
    <g
       id="g4230">
      <rect
         transform="matrix(0.969244,0,0,0.981438,7.038167,6.494517)"
         style="color:#000000;fill:#d4d4d4;fill-opacity:1;fill-rule:evenodd;stroke:#5e5e5e;stroke-width:1.02530253;stroke-linecap:butt;stroke-linejoin:miter;marker:none;marker-start:none;marker-mid:none;marker-end:none;stroke-miterlimit:4;stroke-dasharray:none;stroke-dashoffset:0;stroke-opacity:1;visibility:visible;display:inline;overflow:visible"
         id="rect6216"
         width="18.571428"
         height="4.0756545"
         x="22.142859"
         y="26.497339"
         rx="1.2981558"
         ry="1.282028"
         inkscape:r_cx="true"
         inkscape:r_cy="true" />
      <rect
         transform="matrix(0.969244,0,0,0.993184,7.038167,6.135392)"
         ry="2.5890758"
         rx="2.6530242"
         y="9.4285717"
         x="22.142859"
         height="17"
         width="18.571428"
         id="rect6218"
         style="color:#000000;fill:#d4d4d4;fill-opacity:1;fill-rule:evenodd;stroke:#5e5e5e;stroke-width:1.01922131;stroke-linecap:butt;stroke-linejoin:miter;marker:none;marker-start:none;marker-mid:none;marker-end:none;stroke-miterlimit:4;stroke-dasharray:none;stroke-dashoffset:0;stroke-opacity:1;visibility:visible;display:inline;overflow:visible"
         inkscape:r_cx="true"
         inkscape:r_cy="true" />
      <rect
         transform="matrix(0.991903,0,0,1.016747,6.596164,5.591385)"
         ry="0.56201601"
         rx="0.5760926"
         y="12.268107"
         x="24.603045"
         height="10.818813"
         width="14.114283"
         id="rect6220"
         style="opacity:0.66285712;color:#000000;fill:#ffffff;fill-opacity:1;fill-rule:evenodd;stroke:#ffffff;stroke-width:0.99576914;stroke-linecap:butt;stroke-linejoin:miter;marker:none;marker-start:none;marker-mid:none;marker-end:none;stroke-miterlimit:4;stroke-dasharray:none;stroke-dashoffset:0;stroke-opacity:1;visibility:visible;display:inline;overflow:visible"
         inkscape:r_cx="true"
         inkscape:r_cy="true" />
      <rect
         transform="matrix(0.991903,0,0,1.016747,6.396755,5.642677)"
         style="color:#000000;fill:#204a87;fill-opacity:1;fill-rule:evenodd;stroke:#5e5e5e;stroke-width:0.99576914;stroke-linecap:butt;stroke-linejoin:miter;marker:none;marker-start:none;marker-mid:none;marker-end:none;stroke-miterlimit:4;stroke-dasharray:none;stroke-dashoffset:0;stroke-opacity:1;visibility:visible;display:inline;overflow:visible;font-family:Bitstream Vera Sans"
         id="rect6222"
         width="14.114283"
         height="10.818813"
         x="24.299999"
         y="11.662017"
         rx="0.5760926"
         ry="0.56201613"
         inkscape:r_cx="true"
         inkscape:r_cy="true" />
      <rect
         transform="matrix(0.991903,0,0,1.016747,6.396755,5.642677)"
         ry="0"
         y="12.142857"
         x="24.785715"
         height="1.5000008"
         width="13.071424"
         id="rect6224"
         style="color:#000000;fill:#ffffff;fill-opacity:1;fill-rule:evenodd;stroke:none;stroke-width:1;stroke-linecap:butt;stroke-linejoin:miter;marker:none;marker-start:none;marker-mid:none;marker-end:none;stroke-miterlimit:4;stroke-dasharray:none;stroke-dashoffset:0;stroke-opacity:1;visibility:visible;display:inline;overflow:visible"
         inkscape:r_cx="true"
         inkscape:r_cy="true" />
      <rect
         transform="matrix(0.991903,0,0,1.016747,6.396755,5.642677)"
         style="color:#000000;fill:#a4a0b5;fill-opacity:1;fill-rule:evenodd;stroke:none;stroke-width:1;stroke-linecap:butt;stroke-linejoin:miter;marker:none;marker-start:none;marker-mid:none;marker-end:none;stroke-miterlimit:4;stroke-dasharray:none;stroke-dashoffset:0;stroke-opacity:1;visibility:visible;display:inline;overflow:visible"
         id="rect6226"
         width="2.9294424"
         height="1.1111678"
         x="25.819298"
         y="12.341616"
         inkscape:r_cx="true"
         inkscape:r_cy="true" />
      <rect
         transform="matrix(0.991903,0,0,1.016747,6.396755,5.642677)"
         style="color:#000000;fill:#ffffff;fill-opacity:1;fill-rule:evenodd;stroke:none;stroke-width:1;stroke-linecap:butt;stroke-linejoin:miter;marker:none;marker-start:none;marker-mid:none;marker-end:none;stroke-miterlimit:4;stroke-dasharray:none;stroke-dashoffset:0;stroke-opacity:1;visibility:visible;display:inline;overflow:visible"
         id="rect6228"
         width="4.9902034"
         height="5.5406108"
         x="25.694857"
         y="13.658086"
         ry="0"
         inkscape:r_cx="true"
         inkscape:r_cy="true" />
      <rect
         transform="matrix(0.991903,0,0,1.016747,6.396755,5.642677)"
         style="color:#000000;fill:#a4a0b5;fill-opacity:1;fill-rule:evenodd;stroke:none;stroke-width:1;stroke-linecap:butt;stroke-linejoin:miter;marker:none;marker-start:none;marker-mid:none;marker-end:none;stroke-miterlimit:4;stroke-dasharray:none;stroke-dashoffset:0;stroke-opacity:1;visibility:visible;display:inline;overflow:visible"
         id="rect6230"
         width="4.9497476"
         height="1.1111678"
         x="25.758894"
         y="14.664967"
         inkscape:r_cx="true"
         inkscape:r_cy="true" />
      <rect
         transform="matrix(0.969244,0,0,0.993184,7.038167,6.135392)"
         style="opacity:0.62857145;color:#000000;fill:none;fill-opacity:1;fill-rule:evenodd;stroke:url(#linearGradient4210);stroke-width:1.01922143;stroke-linecap:butt;stroke-linejoin:miter;marker:none;marker-start:none;marker-mid:none;marker-end:none;stroke-miterlimit:4;stroke-dasharray:none;stroke-dashoffset:0;stroke-opacity:1;visibility:visible;display:inline;overflow:visible"
         id="rect6232"
         width="16.281954"
         height="14.90425"
         x="23.2876"
         y="10.476448"
         rx="1.5065978"
         ry="1.4702829"
         inkscape:r_cx="true"
         inkscape:r_cy="true" />
      <rect
         transform="matrix(0.969244,0,0,0.981438,7.038167,6.494517)"
         ry="0.45862138"
         rx="0.46439081"
         y="27.470701"
         x="23.006697"
         height="2.1289344"
         width="16.843739"
         id="rect6234"
         style="opacity:0.5142857;color:#000000;fill:none;fill-opacity:1;fill-rule:evenodd;stroke:#fdfdfd;stroke-width:1.02530253;stroke-linecap:butt;stroke-linejoin:miter;marker:none;marker-start:none;marker-mid:none;marker-end:none;stroke-miterlimit:4;stroke-dasharray:none;stroke-dashoffset:0;stroke-opacity:1;visibility:visible;display:inline;overflow:visible"
         inkscape:r_cx="true"
         inkscape:r_cy="true" />
      <rect
         transform="matrix(0.969244,0,0,0.981438,7.038167,6.494517)"
         y="27.99898"
         x="32.587322"
         height="1.1111678"
         width="5.9598999"
         id="rect6236"
         style="opacity:0.31999996;color:#000000;fill:url(#linearGradient4228);fill-opacity:1;fill-rule:evenodd;stroke:none;stroke-width:1;stroke-linecap:butt;stroke-linejoin:miter;marker:none;marker-start:none;marker-mid:none;marker-end:none;stroke-miterlimit:4;stroke-dasharray:none;stroke-dashoffset:0;stroke-opacity:1;visibility:visible;display:inline;overflow:visible"
         inkscape:r_cx="true"
         inkscape:r_cy="true" />
      <path
         inkscape:r_cy="true"
         inkscape:r_cx="true"
         transform="matrix(1.038793,0,0,1.014783,-1.534756,-0.405597)"
         style="opacity:0.32571423;color:#000000;fill:url(#linearGradient4214);fill-opacity:1;fill-rule:evenodd;stroke:none;stroke-width:0.99999982;stroke-linecap:butt;stroke-linejoin:miter;marker:none;marker-start:none;marker-mid:none;marker-end:none;stroke-miterlimit:4;stroke-dasharray:none;stroke-dashoffset:0;stroke-opacity:1;visibility:visible;display:inline;overflow:visible;font-family:Bitstream Vera Sans"
         d="M 31.319767,18.137473 L 31.319767,24.832614 C 31.948313,24.884804 32.508165,25.035497 33.162006,25.035497 C 37.657111,25.035497 41.439535,23.673222 43.834296,21.72174 L 43.834296,18.137473 L 31.319767,18.137473 z "
         id="rect6452" />
    </g>
    <rect
       inkscape:r_cy="true"
       inkscape:r_cx="true"
       style="color:#000000;fill:url(#linearGradient4359);fill-opacity:1;fill-rule:evenodd;stroke:none;stroke-width:1;stroke-linecap:butt;stroke-linejoin:miter;marker:none;marker-start:none;marker-mid:none;marker-end:none;stroke-miterlimit:4;stroke-dasharray:none;stroke-dashoffset:0;stroke-opacity:1;visibility:visible;display:inline;overflow:visible;opacity:0.2"
       id="rect4357"
       width="0.69575834"
       height="6.9575834"
       x="6.4755893"
       y="30.058815"
       transform="matrix(1.437281,0,0,1.006096,-1.30724,-0.242067)" />
    <rect
       inkscape:r_cy="true"
       inkscape:r_cx="true"
       style="color:#000000;fill:url(#linearGradient4363);fill-opacity:1;fill-rule:evenodd;stroke:none;stroke-width:1;stroke-linecap:butt;stroke-linejoin:miter;marker:none;marker-start:none;marker-mid:none;marker-end:none;stroke-miterlimit:4;stroke-dasharray:none;stroke-dashoffset:0;stroke-opacity:1;visibility:visible;display:inline;overflow:visible;opacity:0.2"
       id="rect4361"
       width="0.69575834"
       height="6.9575834"
       x="6.4755893"
       y="30.058815"
       transform="matrix(1.437281,0,0,1.006096,0.69276,-0.242067)" />
    <rect
       inkscape:r_cy="true"
       inkscape:r_cx="true"
       style="color:#000000;fill:url(#linearGradient4367);fill-opacity:1;fill-rule:evenodd;stroke:none;stroke-width:1;stroke-linecap:butt;stroke-linejoin:miter;marker:none;marker-start:none;marker-mid:none;marker-end:none;stroke-miterlimit:4;stroke-dasharray:none;stroke-dashoffset:0;stroke-opacity:1;visibility:visible;display:inline;overflow:visible;opacity:0.2"
       id="rect4365"
       width="0.69575834"
       height="6.9575834"
       x="6.4755893"
       y="30.058815"
       transform="matrix(1.437281,0,0,1.006096,2.69276,-0.242067)" />
    <rect
       inkscape:r_cy="true"
       inkscape:r_cx="true"
       y="30.058815"
       x="7.1017718"
       height="6.9575834"
       width="0.69575834"
       id="rect4369"
       style="opacity:0.2;color:#000000;fill:url(#linearGradient4371);fill-opacity:1;fill-rule:evenodd;stroke:none;stroke-width:1;stroke-linecap:butt;stroke-linejoin:miter;marker:none;marker-start:none;marker-mid:none;marker-end:none;stroke-miterlimit:4;stroke-dasharray:none;stroke-dashoffset:0;stroke-opacity:1;visibility:visible;display:inline;overflow:visible"
       transform="matrix(1.437281,0,0,1.006096,-1.207242,-0.24205)" />
    <rect
       inkscape:r_cy="true"
       inkscape:r_cx="true"
       y="30.058815"
       x="7.1017718"
       height="6.9575834"
       width="0.69575834"
       id="rect4373"
       style="opacity:0.2;color:#000000;fill:url(#linearGradient4375);fill-opacity:1;fill-rule:evenodd;stroke:none;stroke-width:1;stroke-linecap:butt;stroke-linejoin:miter;marker:none;marker-start:none;marker-mid:none;marker-end:none;stroke-miterlimit:4;stroke-dasharray:none;stroke-dashoffset:0;stroke-opacity:1;visibility:visible;display:inline;overflow:visible"
       transform="matrix(1.437281,0,0,1.006096,0.792758,-0.24205)" />
    <rect
       inkscape:r_cy="true"
       inkscape:r_cx="true"
       style="opacity:0.2;color:#000000;fill:url(#linearGradient4383);fill-opacity:1;fill-rule:evenodd;stroke:none;stroke-width:1;stroke-linecap:butt;stroke-linejoin:miter;marker:none;marker-start:none;marker-mid:none;marker-end:none;stroke-miterlimit:4;stroke-dasharray:none;stroke-dashoffset:0;stroke-opacity:1;visibility:visible;display:inline;overflow:visible"
       id="rect4381"
       width="0.69575834"
       height="6.9575834"
       x="5.7242408"
       y="30.058815"
       transform="matrix(1.437281,0,0,1.006096,4.77266,-0.242067)" />
  </g>
</svg>
